Cluster 4:
Distance to centroid: 12.568294725809947 - New: US FDA prices 'lost pleasure' of junk food into #calorie count rule
Distance to centroid: 13.130763874623433 - New: RT @lizlandau: "There are no good medical reasons to generate a cloned baby" -- more on cloning &amp; stem cells:
Distance to centroid: 13.253977057342382 - New: .@SKGross2009 If the vaccine isn't properly tested, it could have neg. side effects. Vaccines generally given to healthy ppl #EbolaQandA
Distance to centroid: 13.690570340391856 - New: 1 in 8 U.S. babies is born pre-term. @LIFE takes a look at how hospitals saved these tiny humans 75 yrs ago
Distance to centroid: 13.934571184097505 - New: There's still a lot of flu season left. Here's how to stay safe from the current flu epidemic:
Distance to centroid: 14.064096518345961 - New: #USA has "free, no-strings-attached" #sex policy at #WorldCup. Other teams aren't so lucky
Distance to centroid: 14.073908952675826 - New: MT @WHO: After tobacco control, maintaining healthy body weight, reg physical activity is the second most important way to prevent #cancer
Distance to centroid: 14.32512587419316 - New: .@Insperity formed a GIANT human heart before kicking off their awareness walk for @American_Heart #heartmonth win!
Distance to centroid: 14.4687255645277 - New: Today's #getfit tip @littleamberfate: DEAD LAST is greater than DID NOT FINISH, which trumps DID NOT START
Distance to centroid: 14.525584846045113 - New: Research sheds some light on a new way to fight baldness:
Distance to centroid: 14.527912480009082 - New: .@SharkyBradshaw while there aren't likely any long term problems, short term motor function and memory can be hit hard. -- SG #AskSanjay
Distance to centroid: 14.654704142061718 - New: RT @CNN: Trauma and grief don't always fit neatly into five textbook stages, @drsanjaygupta says.
Distance to centroid: 14.992124444931736 - New: Chilean Siamese twins born with single heart can’t be separated, surgeon says
Distance to centroid: 15.0947995013986 - New: A wounded warrior, walking tall: Paraplegic Army vet walks around Statue of Liberty thx to bionic device
Distance to centroid: 15.107122271369516 - New: BHoloo asked if parkinson’s is same as alzheimer’s. a) it’s a different disease but can have similar memory loss symptoms. -SG #AskSanjay
Distance to centroid: 15.1243231227541 - New: Hold on to your foam fingers, football fans: There's a new sport in town. @dailyburn goes inside @TheGridLeague
Distance to centroid: 15.200097918897612 - New: MT @cnnireport: Going into surgery can be scary, but one patient decided to take on hers with a dance party:
Distance to centroid: 15.266121271562008 - New: The power of positivity: How banishing negative thoughts helped me beat pancreatic #cancer, twice
Distance to centroid: 15.28664841897143 - New: Paralysis cure, new vaginas...and other medical stories of 2014
Distance to centroid: 15.344198095115493 - New: Children exposed to cigarette smoke while growing up face nearly double the risk of developing this:
Cluster 2:
Distance to centroid: 18.93289476949812 - New: Want to wake up refreshed tomorrow? Beware the dangers of junk sleep:
Distance to centroid: 19.19005403156254 - New: RT @SueScheff: #CNNParents HUGE DENIAL, I deal w it weekly. Sadly I will have the same parent call 2 years later, teen is now 18, &amp; unless …
Distance to centroid: 19.723983484521238 - New: .@tbonemexi15 @DrFriedenCDC says US is much better equipped to handle #Ebola patients, keep them isolated &amp; contain the virus #EbolaQandA
Distance to centroid: 19.80173874887347 - New: Watch the intrepid @RachCrane trying out a new fitness craze: exposing herself to -220F temps to boost metabolism
Distance to centroid: 19.808738937518612 - New: Nov. 7: The FDA took a first step toward eliminating most trans fats from the food supply.
Distance to centroid: 20.053672130262708 - New: Some restaurants are slacking when it comes to cutting sodium from the menu, @CSPI  says
Distance to centroid: 20.0793626781011 - New: On the flu shot... RT @Angietweets12: @cnnhealth no way I'll let my body fight off any foreign invaders with the nutritious food I eat
Distance to centroid: 20.10892928852368 - New: Biking to work: The road to fitness, or an accident waiting to happen? Take a tour of these 7 cities to find out
Distance to centroid: 20.169165263960764 - New: RT @professorbac: @cnnhealth @AllergyReliefNY  When I travel, I call the hotel , ask them not use chemical rug powder within  24 hrs of my …
Distance to centroid: 20.238730738576855 - New: MT @DrEarlTurner Q7 What can parents do to change the stigma around mental illness? #CNNparents &lt;Be open to seeking psychological treatment&gt;
Distance to centroid: 20.336839485137972 - New: Ear trouble? Save yourself a trip to the ER. One startup has created an iPhone attachment to diagnose ear infections.
Distance to centroid: 20.373564637315763 - New: Boston declares a health emergency as the flu outbreak hits 41 states. Find out how many people are sick so far:
Distance to centroid: 20.392099463612425 - New: See why one mom calls this "the invisible illness" #rarediseaseday
Distance to centroid: 20.405399682598002 - New: Sexy time feeling a little run of the mill lately? Put a new spin on it:
Distance to centroid: 20.448758321841964 - New: Should high school students be sleeping in? One study says yes. Feel free to hit the snooze button
Distance to centroid: 20.609657218291435 - New: RT @ChildrensMercy: .@cnnhealth @AllergyReliefNY Oops, read your mind &amp; jumped the gun. :) Hygiene hypothesis is definitely most prevalent …
Distance to centroid: 20.66367136920466 - New: Young adults say they see e-cigs as safe, fun technology
Distance to centroid: 20.762205923611365 - New: RT @NPHW: #NPHWchat has been an amazing conversation! Let's keep public health top of mind all week &amp; beyond with the hashtag #NPHW. KEEP I…
Distance to centroid: 20.775282519859235 - New: RT @MarkTheBeastR: @sarahstanley @EverydayHealth A7: Small steps are the key. Small steps add up to giant leaps. I've lost over 100 lbs that way. #HealthTalk
Distance to centroid: 20.785379533820144 - New: It's hard to believe it's 5 years since the Haiti quake. Here's one incredible survival story
Cluster 1:
Distance to centroid: 14.19103260954427 - New: RT @PerrynCarroll: A6: #weight gain can occur when quitting smoking. Get advice from a dietitian who specialises in weight management #healthtalk
Distance to centroid: 14.328380589033458 - New: Dan had lost weight before, so this time he set a dif. kind of goal — "From Fatman to Ironman"
Distance to centroid: 14.385854656683104 - New: RT @cnnbrk: FDA preliminarily says trans fats not safe -- a potential step toward eliminating them from U.S. foods.
Distance to centroid: 14.687891278250241 - New: FDA asks docs to stop prescribing pain meds like Percocet/Vicodin that contain high doses of acetaminophen
Distance to centroid: 14.719571143077067 - New: RT @chi_stylish: I want to know if taking red wine when on anti hypertensive medications is dangerous #HealthTalk
Distance to centroid: 14.844429630022912 - New: RT @rlegrant: Dad who lost his son to cancer now gives free rides to kids who need chemo. Best thing I've read all week.
Distance to centroid: 14.974624124751726 - New: The fact these girls are rare twins isn't what's so remarkable, it's what they did as they were born:
Distance to centroid: 14.995163487501241 - New: RT @goodhealth: Lasting #weightloss may seem like an uphill battle, but it's possible. Here's what we know works --&gt;
Distance to centroid: 15.053466089813883 - New: RT @johnlapuma: A6: Eating 10 g of charred/very high T meat increases prostate CA risk by about 40%; but all meat does not. #menshealth #healthtalk
Distance to centroid: 15.107387724437574 - New: Happy National #DNA Day! Here's 5 cool things DNA testing can do
Distance to centroid: 15.189723242200598 - New: RT @kimmcdt: @BobBarnett @cnnhealth @upwave Of course #soap and water work best.  Our mothers were right!!
Distance to centroid: 15.314815434535056 - New: FRUSTRATION doesn't even begin to cover what this #Alzheimers caregiver feels every day
Distance to centroid: 15.316032473022243 - New: We may live longer because our metabolism sucks -- and other fascinating discoveries published this week
Distance to centroid: 15.427211276475406 - New: Want flatter abs, stronger legs, and better endurance? Train to run a race! Here's how to get started:
Distance to centroid: 15.427211276475406 - New: Want flatter abs, stronger legs, and better endurance? Train to run a race! Here's how to get started:
Distance to centroid: 15.427211276475406 - New: Want flatter abs, stronger legs, and better endurance? Train to run a race! Here's how to get started:
Distance to centroid: 15.457304060666058 - New: Tips from our favorite @DrWeil on redefining happiness and emotional wellness:
Distance to centroid: 15.528589405850601 - New: RT @AllergyReliefNY: .@cnnhealth Not that simple, but we do know that breastfeeding plays an important role in a robust immune system #CNNA…
Distance to centroid: 15.562092985784517 - New: You'd use bricks to fix a brick wall, right? This family hopes fish oil will fix their son's brain
Distance to centroid: 15.633406956722817 - New: #Diabetes took @TriHardSia's teeth. "I'll be dammed if I lose any other body part to this disease" she says.
Cluster 0:
Distance to centroid: 20.604204591701656 - New: AUDIO: 'Steroids made my sperm count zero'
Distance to centroid: 20.875068242115308 - New: Amid claims of a secret waiting list, Phoenix VA officials have put on leave
Distance to centroid: 21.4727049789808 - New: RT @CDCgov: CDC #Ebola experts have advised @EmoryUniversity Hospital there is no public health concern w/ release of these patients.
Distance to centroid: 22.05303123004231 - New: .@WHO: +200K new cases of leprosy are diagnosed per year. Make it a top issue for @CNN/@jdsutter? VOTE:
Distance to centroid: 22.076192223092708 - New: RT @CNN: A turnip + First Lady Michelle Obama cutting loose = One incredible Vine
Distance to centroid: 22.26983195476718 - New: Mothers with HIV are still urged to bottle feed their babies:
Distance to centroid: 22.38653101178981 - New: $25 spent on sexual health per woman per year would reduce deaths, says UN
Distance to centroid: 22.59868045847692 - New: .@HPutt @CDCgov warns against any nonessential travel to the region but has not banned outright. Quarantine period is 3 wks for #Ebola
Distance to centroid: 22.601376057156894 - New: NOAA says a virus killed hundreds of dolphins along the east coast
Distance to centroid: 22.602309037512267 - New: Have you traveled to #Seattle lately? Health officials investigating #measles case at the airport:
Distance to centroid: 23.357146730106933 - New: .@josemp0944 You know your history! Reston Ebola virus has come to U.S. several times in monkeys:
Distance to centroid: 23.47463627488147 - New: RT @drsanjaygupta: a rare look inside a village where every resident has severe dementia. entire video is now here.
Distance to centroid: 23.593929609800856 - New: Health officials are investigating a possible tuberculosis exposure in the NICU at a Nevada hospital.
Distance to centroid: 23.61619346522152 - New: RT @cnnbrk: Texas House OKs restrictive abortion measure; state Senate still considering its version.
Distance to centroid: 23.7206478823566 - New: Wow — 32,100 years ago RT @lizlandau: Dogs were first domesticated in Europe, says new #science study
Distance to centroid: 23.741994408989488 - New: Has Ebola focus led to other killer diseases being ignored?
Distance to centroid: 23.917646929294452 - New: We agree! RT @2020science: The roots of our Ebola fears - worth reading.
Distance to centroid: 23.94762159475426 - New: #Ebola fears hit close to home: American Patrick Sawyer died in Nigeria after being infected by the deadly virus
Distance to centroid: 23.987043122497198 - New: VIDEO: The man who helped save 50 million lives
Distance to centroid: 24.011801380570684 - New: Gates Foundation awards $50 million to Stanford #vaccine discovery
Cluster 3:
Distance to centroid: 18.250828401348677 - New: RT @DanielAdams86: Boston Police looking for missing autistic boy from E. Boston. Help find Jeffery. Red tshirt, sox sweatshirt &amp; hat, jean…
Distance to centroid: 18.410895391738944 - New: Looking for a healthier state of mind? @AgapiSays shares Greek wisdom from her new book 'Unbinding The Heart':
Distance to centroid: 18.506854288903437 - New: #Flu picking up steam across the U.S. Do you have any questions for our doctors? Send 'em with #fluQs
Distance to centroid: 18.511262278653145 - New: RT @CNNVideo: Deaf toddler's reaction to hearing his dad's voice for the first time will make your day. @drsanjaygupta reports:
Distance to centroid: 18.631689893968918 - New: Dancing w/ the Stars doesn't premiere for a few wks. Get ur fix with these #health tips from host @brookeburke
Distance to centroid: 18.87491392102416 - New: Any advice for @culberd? I have a 15 yr old boy who is bipolar. He won't stay on meds. My family wants me to send him away #CNNParents
Distance to centroid: 19.032320930810478 - New: We're almost there! Help us reach 100,000 followers #FF for breaking #health news, tips &amp; features on living better
Distance to centroid: 19.095357523468174 - New: A record # of women are using IVF to get pregnant. Why?
Distance to centroid: 19.110816324775794 - New: Eating a @ChickfilA chicken biscuit for breakfast this a.m.? In 5 yrs that chicken will be antibiotic free
Distance to centroid: 19.128335721221397 - New: RT @cnnbrk: CVS stores to stop selling tobacco;  "Right thing for us to do," CEO says.
Distance to centroid: 19.13047763800218 - New: RT @dreenaburton: This "no-fu love loaf" has become v popular recipe, doesn't use ANY meat replacements, no tofu/tvp/seitan:
Distance to centroid: 19.2050711916647 - New: RT @CNNMoney Soda sales are losing their fizzzzzz. (Could be good for the bottled water industry?)
Distance to centroid: 19.233025482606337 - New: Party too hard? This doc will cure your #hangover ... for a cool $250!
Distance to centroid: 19.279814173843913 - New: Report urges new name, better diagnosis for chronic fatigue
Distance to centroid: 19.348959391758925 - New: Congrats to #iReportAwards nominees Sam Wessels &amp; Cliff Francoeur for their stories on autism &amp; depression. Vote!
Distance to centroid: 19.515143066611643 - New: Imagine living w/o a pulse. Scientists are engineering a replacement for the human heart -- one that doesn't beat
Distance to centroid: 19.515143066611643 - New: Imagine living w/o a pulse. Scientists are engineering a replacement for the human heart -- one that doesn't beat
Distance to centroid: 19.543141819971062 - New: For doctors using fitness trackers &amp; apps, challenges remain
Distance to centroid: 19.556404102642382 - New: RT @DrFriedenCDC: Better health for ALL Americans means focusing our efforts where most needed. Looking forward to #NPHWchat
Distance to centroid: 19.765323292976685 - New: See why this woman’s children are afraid to let her laugh or sing #rarediseaseday
