Cluster 10:
Distance to centroid: 36.2382714095223 - New: .@GibobDale Ebola spreads thru bodily fluids. If patient sweats, vomits on blanket, whoever touches that could become infected #EbolaQandA
Distance to centroid: 36.630086478191735 - New: John Farah is in his 70s, but he’s headed back for a 19th #BostonMarathon. See why the bombings won’t stop him:
Distance to centroid: 37.20777997385606 - New: RT @CEP_America: It’s like Uber, for house calls! @CNNHealth shares how some #apps are helping patients avoid long waits in the #ED:
Distance to centroid: 37.29932839057024 - New: A fight is brewing over #livertransplant donations. Would proposed changes turn the Midwest into an 'organ farm'?
Distance to centroid: 37.42016997500839 - New: Go orange! How the nutrient that gives carrots their orange color might protect against type 2 #diabetes:
Distance to centroid: 37.42016997500839 - New: Go orange! How the nutrient that gives carrots their orange color might protect against type 2 #diabetes:
Distance to centroid: 37.916127553886675 - New: 60% of high school seniors don't think #marijuana is harmful to their #health
Distance to centroid: 38.05169704976809 - New: .@Fiyrstorm Unlikely to spread thru water system. Chlorine, heat, direct sunlight, soaps and detergents can all kill the virus #EbolaQandA
Distance to centroid: 38.08997641962293 - New: .@SKGross2009 If the vaccine isn't properly tested, it could have neg. side effects. Vaccines generally given to healthy ppl #EbolaQandA
Distance to centroid: 38.3668086795802 - New: nobel prize winner eric kandel says our genes get altered during learning process, impacts memory -SG
Distance to centroid: 39.06940409195102 - New: RT @lizlandau: A 13-year-old recently died of #food #allergy in California; sad reminder that allergies can be deadly
Distance to centroid: 39.17435530681927 - New: RT @EinsteinMed: Its not known-possible causes r exposure to environ. toxins or viruses RT @JoSakimura Q1 Why see rising rates of #type1 in kids? #healthtalk
Distance to centroid: 39.31493530391702 - New: staying connected helps #brain. studies show having 1 close pal provides sense of purpose, keeps brain sharp, lowers stress. -SG #AskSanjay
Distance to centroid: 39.41150873386339 - New: RT @elizcohencnn: My heart goes out to victims of the CA superbug. Here's how to avoid hospital acquired infections. Tell me ur story.
Distance to centroid: 39.857041636442595 - New: .@SharkyBradshaw while there aren't likely any long term problems, short term motor function and memory can be hit hard. -- SG #AskSanjay
Distance to centroid: 40.221462689924046 - New: RT @CNN: Study: 1 in 25 patients gets an infection while at the hospital. Here's how to avoid getting sick:
Distance to centroid: 40.37647172090996 - New: RT @HellaWellaEats: Q5: The vitamin E in nuts and seeds helps prevent blood clots &amp; aids red blood cell production — plus it's an antioxidant! #healthtalk
Distance to centroid: 40.42243578464542 - New: The power of positivity: How banishing negative thoughts helped me beat pancreatic #cancer, twice
Distance to centroid: 40.43492182883075 - New: Children exposed to cigarette smoke while growing up face nearly double the risk of developing this:
Distance to centroid: 40.93128912912007 - New: Stuck in meetings at work? Group meetings drop IQ and squash problem-solving abilities, a new study says:
Cluster 6:
Distance to centroid: 43.03578188218038 - New: .@nhanson22 Physical exercise is grt for brain health, better than cognitive exercises. Increased bolod flow and decrease inflammation -- SG
Distance to centroid: 43.734711945405074 - New: Slow + steady wins the race called life! Even a 5-minute run can help prevent #heartdisease
Distance to centroid: 44.04906565045053 - New: ADHD characteristics can actually be a huge plus in choosing a career. Here, the most ADHD-friendly jobs:
Distance to centroid: 44.04906565045053 - New: ADHD characteristics can actually be a huge plus in choosing a career. Here, the most ADHD-friendly jobs:
Distance to centroid: 44.04906565045053 - New: ADHD characteristics can actually be a huge plus in choosing a career. Here, the most ADHD-friendly jobs:
Distance to centroid: 44.04906565045053 - New: ADHD characteristics can actually be a huge plus in choosing a career. Here, the most ADHD-friendly jobs:
Distance to centroid: 44.04906565045053 - New: ADHD characteristics can actually be a huge plus in choosing a career. Here, the most ADHD-friendly jobs:
Distance to centroid: 44.04906565045053 - New: ADHD characteristics can actually be a huge plus in choosing a career. Here, the most ADHD-friendly jobs:
Distance to centroid: 44.04906565045053 - New: ADHD characteristics can actually be a huge plus in choosing a career. Here, the most ADHD-friendly jobs:
Distance to centroid: 44.04906565045053 - New: ADHD characteristics can actually be a huge plus in choosing a career. Here, the most ADHD-friendly jobs:
Distance to centroid: 44.04906565045053 - New: ADHD characteristics can actually be a huge plus in choosing a career. Here, the most ADHD-friendly jobs:
Distance to centroid: 44.04906565045053 - New: ADHD characteristics can actually be a huge plus in choosing a career. Here, the most ADHD-friendly jobs:
Distance to centroid: 44.29834021665337 - New: Were you or your child supposed to start a clinical trial that may be delayed b/c of the #shutdown? Let us know
Distance to centroid: 45.89127054007402 - New: i’m seeing several q’s about fish oil helping after a brain injury. yes, it can help heal the brain. -SG
Distance to centroid: 46.02133436806463 - New: A new study confirms: Moderate exercise helps you fight off colds! More surprising times to hit the gym:
Distance to centroid: 46.449130442189336 - New: Decorating, cooking, drinking...  the holidays can be hazardous. Share past injuries using #holidayhurt. Responses could be on CNN!
Distance to centroid: 46.88450407295852 - New: Yoga helps not only keep you fit, but it can help your heart and mind too, a new study finds:
Distance to centroid: 47.47766772844795 - New: RT @RMichlerMD: A3: High BP places stress on blood vessel walls &amp; can cause injury leading to plaque build up #healthtalk
Distance to centroid: 47.73021387049732 - New: RT @EinsteinMed: A5: Diabetes can b present 4 many years w/out symptoms but still may be causing damage to eyes, kidneys &amp; nerves. –DrC #healthtalk
Distance to centroid: 47.79862564603269 - New: RT @Healthy_Beauty_: @cnnhealth @boyscouts No. Why not offer a variety of activity choices, so boys of all fitness levels can attend &amp; bene…
Cluster 1:
Distance to centroid: 34.34379088325643 - New: Any advice for @culberd? I have a 15 yr old boy who is bipolar. He won't stay on meds. My family wants me to send him away #CNNParents
Distance to centroid: 34.37390367670783 - New: RT @CNNVideo: Deaf toddler's reaction to hearing his dad's voice for the first time will make your day. @drsanjaygupta reports:
Distance to centroid: 34.48287202590506 - New: #Diabetes took @TriHardSia's teeth. "I'll be dammed if I lose any other body part to this disease" she says.
Distance to centroid: 35.00215506714622 - New: RT @TheHeartTruth: A6: @EverydayHealth, using spices rather than salt is tasty and your heart will thank you! Recipes:
Distance to centroid: 35.69294815964544 - New: .@Naz315 I love being a neurosurgeon, and would definitely recommend it. Just told my own daughter the same thing last week! -- SG
Distance to centroid: 36.79382322990162 - New: Had a lot of Qs when we got @TLC's email about a 132-lb scrotum. So we asked his doc: What's up w/ this?
Distance to centroid: 37.604034705367035 - New: RT @KelseySeybold: OB/GYN specialist Dr. Deepali Patni featured in @cnnhealth - Menopause: Questions women are thinking, but not asking. ht…
Distance to centroid: 37.85598925306164 - New: RT @drsanjaygupta: letting @diananyad get some rest, and then I sit down with her for 1st post swim intvu. anything you want me to ask? #ex…
Distance to centroid: 38.28633779642732 - New: Did you pour your kids a big bowl of cereal this morning? It may have TOO MANY vitamins for their small bodies
Distance to centroid: 38.39195340270762 - New: Why are we so afraid #Ebola will kill us all? Because we've seen it happen time and again on the big screen:
Distance to centroid: 38.40699893392227 - New: Bullying is an "international public health problem," experts say. This boy has asked Santa to fix it
Distance to centroid: 38.409381786261285 - New: RT @CNN: Trauma and grief don't always fit neatly into five textbook stages, @drsanjaygupta says.
Distance to centroid: 38.42355403332759 - New: Do you or one of your kids have #dyslexia? Using an smartphone or tablet could make reading fun again
Distance to centroid: 38.52791027023267 - New: Each spring do you recommend people stick with the same allergy med they took before, or try switching? @AllergyReliefNY #CNNAllergies
Distance to centroid: 38.54033543927539 - New: RT @gatortracy: #CNNParents find other parents for support. We understand each other. And remember to take care of yourself. CNN- thank you…
Distance to centroid: 38.611268328248485 - New: A man sewed a cell phone into his arm, for real. You don’t have to go that far to monitor your body:
Distance to centroid: 38.611268328248485 - New: A man sewed a cell phone into his arm, for real. You don’t have to go that far to monitor your body:
Distance to centroid: 38.89463554988932 - New: RT @powerscooters: @AdvocateSH avoid fried foods, ask how big portions are, &amp; don't be afraid to take food home or split a meal #healthtalk
Distance to centroid: 39.126000174733925 - New: RT @dietitiancassie: Still drinking diet soda? You might want to stop. I'm quoted throughout this article from @CNNHealth explaining WHY.. …
Distance to centroid: 39.131120217052114 - New: RT @milesobrien: Thanks to @drsanjaygupta @roniselig @susanchun1 @tinkertime @calebhell @AC360 for such a powerful film. I hope this teache…
Cluster 5:
Distance to centroid: 46.74892836393486 - New: RT @SSDdotTV: If you cant work due to #psoriasis, consider disability benefits for financial help. See how to apply
Distance to centroid: 47.53789493734788 - New: Q2: How do you combat kids' bday parties, soccer games, etc. where other parents bring sweets? #FitFamilies
Distance to centroid: 49.063644723847545 - New: Q10 @terfitzpatrick How to get them back on track? Tragic loss of father has been a huge issue #CNNParents
Distance to centroid: 50.33581271803678 - New: WOW. Cirque du Soleil performer explains how his need for perfection turned into a drug addiction
Distance to centroid: 50.48837697431165 - New: Massage therapist to the stars shows @jillianmichaels how to give a couples massage, sure to spice things up in bed!
Distance to centroid: 50.71586613409581 - New: Hey @NACCHOalerts leaders: Show us how your city inspires healthy habits, and you could be on @CNN!
Distance to centroid: 50.71586613409581 - New: Hey @NACCHOalerts leaders: Show us how your city inspires healthy habits, and you could be on @CNN!
Distance to centroid: 50.94719275839022 - New: RT @CNNLiving: How do parents of addicts help their children? @kellywallacetv gets a painfully honest answer
Distance to centroid: 51.17775762979771 - New: RT @CNN: What if there were problems in your genes? See how doctors hope to "clean up" our DNA:
Distance to centroid: 52.184686447435006 - New: Head lice don't take the summer off! How you can prevent and treat 'em
Distance to centroid: 52.5111175303509 - New: How to protect your family from the #flu: CNN's @LivingWellDoc offers invaluable tips
Distance to centroid: 52.53395254140074 - New: Teen's tragic flu death sparks action. How you can keep your kid safe:
Distance to centroid: 53.544912358093036 - New: RT @CNNMoney: World getting 'super-aged' at scary speed. See how fast with our interactive:
Distance to centroid: 53.79841842995246 - New: The truth about lactic acid and how it affects your workout
Distance to centroid: 53.87652495313806 - New: Celeb trainer @DavidKirsch calls his twin girls his ‘little petri dishes.’ Learn how he makes healthy fun at 1 pm ET #FitFamilies
Distance to centroid: 54.148644554243496 - New: Are drugs like #Tamiflu worth it? Learn how much they reduce #flu symptoms by:
Distance to centroid: 54.17553788778287 - New: Turns out you can use the placebo effect on yourself. Learn how to better your day:
Distance to centroid: 54.218344867043015 - New: Learn more about what a #HeartAttack is and how to recognize the symptoms:
Distance to centroid: 54.229724495347504 - New: You might not recognize former @tigers pitcher Denny McLain. He's lost 162 pounds!
Distance to centroid: 54.71702373291759 - New: Is there such a thing as healthy Chinese food? @Joybauer tells you how to enjoy the popular cuisine without any guilt:
Cluster 23:
Distance to centroid: 41.28523921587895 - New: RT @chi_stylish: I want to know if taking red wine when on anti hypertensive medications is dangerous #HealthTalk
Distance to centroid: 42.20109359400999 - New: RT @jdwilson2: The problem with shooting photos in an exercise room is that there are mirrors everywhere... See me in…
Distance to centroid: 42.60941403053002 - New: If your kid is obese at age 5, they may be forever. UNLESS you step in! Join us at 1 pm Fri for a chat #FitFamilies
Distance to centroid: 43.48250639550639 - New: RT @jdwilson2: "Life is never going to be stress free" Dr. Robert Kushner says. The key is learning positive coping skills #YWM2013
Distance to centroid: 43.49031750736829 - New: RT @drmannyonFOX: When 'feeling the burn' is a bad thing - 8 tips for soothing #heartburn during #pregnancy
Distance to centroid: 43.77021646459333 - New: So far this year's #flu season is pretty typical, docs say. What's your go-to when you get sick?
Distance to centroid: 43.84044766670068 - New: Is your child getting enough sleep? @LivingWellDoc shares tips that will make for a happier baby in the a.m.
Distance to centroid: 44.21204609626477 - New: RT @KeeganSheridan: Wonderful visuals in this @cnnhealth slide show. Sweet comparisons: How much #sugar is in that drink?
Distance to centroid: 44.91344062751888 - New: We're using tech to track every move our bodies make. They're using it to become human science experiments
Distance to centroid: 44.96144481837264 - New: RT @AllergyReliefNY: .@cnnhealth what's good for you is bad for you &amp; vice versa. Too clean first 1-2 yr of life is not beneficial for immu…
Distance to centroid: 45.10460041988034 - New: Doctors believe #enterovirus68 is making kids sick. But nailing the culprit won't be easy. Here's why:
Distance to centroid: 45.23315325857646 - New: Families speak out against doctor who said ‘death from cancer is the best’
Distance to centroid: 45.480063933653184 - New: RT @drsanjaygupta: a rare look inside a village where every resident has severe dementia. entire video is now here.
Distance to centroid: 45.60127691520613 - New: "Vaccines prevent 6 million deaths every year and fundamentally changed modern medicine" Opinion @drsanjaygupta
Distance to centroid: 46.06425191762028 - New: Today is #raredisease day. We and @cnnireport will be sharing stories of bravery in the face of difficult diagnoses.
Distance to centroid: 46.09100540081972 - New: Happy World #Health Day! @BrettHoebel is here to help you prevent high blood pressure
Distance to centroid: 46.22073765953186 - New: There are definite harms associated w/ lung cancer screening, @OtisBrawley says. Is it right for you?
Distance to centroid: 46.617126631798044 - New: "Sometimes I think I'm going crazy," NFL's Ronney Jenkins says. He suspects #CTE is clawing through his brain
Distance to centroid: 46.65595307338527 - New: RT @Savingdaniel13: @FedFamSC #CNNParents It was scary at first but it is something I knew that needed to be done. Stigma won't get me anym…
Distance to centroid: 46.77831202879818 - New: RT @FitNP: @cnnhealth @BeWellBoston #plankaday is doing a "plank" once daily. The hope is that your time gradually increases &amp; you r ...
Cluster 26:
Distance to centroid: 45.22819754930472 - New: On this #911anniversay be sure to read about how some first responders with rare cancer aren't getting insurance help
Distance to centroid: 45.49316575915192 - New: RT @NPF: A4: Be proactive and learn about your #psoriasis. Being an informed patient can help you cope with the disease. #healthtalk
Distance to centroid: 46.454404387664425 - New: . @yourmansecret with my 3 daughters, i try to engage their brains with activities like puzzles, or even cooking together. –SG #AskSanjay
Distance to centroid: 47.24882164147325 - New: Beware the food-borne illness and lather up on your hand-washing skills with these 5 must-do steps
Distance to centroid: 48.0768730810757 - New: Fight 'allergy face' (hey, it happens to the best of us) with advice from Kate Walsh and Rebekah George:
Distance to centroid: 48.59641933956384 - New: RT @R1NG0: Not sure what's harder, suffering with #depression or seeing someone you love suffer with it! Probably the latter!
Distance to centroid: 48.98017461856023 - New: We were so impressed with your thoughts on treating #PTSD with ecstasy we decided to round 'em up and publish them
Distance to centroid: 49.44708914889141 - New: RT @gatortracy: #CNNParents I worked hard to get my son in a therapeutic school. Makes a difference. Parents of kids with MI must advocate.
Distance to centroid: 49.6172785850695 - New: RT @ohsoamy: best marital advice I've heard in a while! "@cnnhealth: 'Hangry'? Don't fight with your spouse
Distance to centroid: 49.95044032743366 - New: The CDC's director talks hits and misses with their Ebola response. That's exclusively with CNN's @elizcohencnn
Distance to centroid: 50.382947342647405 - New: RT @EinsteinMed: A7: Metformin needs to be used cautiously in people with certain types of kidney or heart disease. -DrC #healthtalk
Distance to centroid: 50.46430237490678 - New: Woman, 25, given less than month to live surprises friends, family with wedding
Distance to centroid: 50.586124315139806 - New: When one man's daughter had a brain tumor, Robin Williams hired a jet to spend a day with her:
Distance to centroid: 50.62489204486382 - New: RT @stacewelsh: I got to meet @DrSanjayGupta and go to an @AC360 town hall for my internship with @cnnhealth! So excited!
Distance to centroid: 50.73184723228944 - New: RT @CNNMoney: Restaurant chain Chili's canceled a fundraiser with the National Autism Association due to customer feedback.
Distance to centroid: 50.85015132801965 - New: Life With Breast Cancer: Old News Is Good News for #BreastCancer Patients
Distance to centroid: 50.95255704730459 - New: i had a fascinating convo with @deepakchopra. he shared advice on how to create a ‘super brain.’ –SG
Distance to centroid: 51.298079130735644 - New: Welcome to our chat on raising kids with mental illness! Pls pose questions to our experts using #CNNParents
Distance to centroid: 51.75863893911375 - New: Evacuations of 2 Americans infected with #Ebola with take place "in coming days" state dept. says
Distance to centroid: 51.798106414138175 - New: RT @eatsmartbd: A10: There are about 1 million men with serious eating disorders, and tens of millions with a form of an eating disorder. #healthtalk
Cluster 13:
Distance to centroid: 47.543429700488595 - New: Are you a beginner? Here's a great lower body exercise routine that works up a a good sweat from @arfit @blogilates:
Distance to centroid: 48.963848517334235 - New: "If you got skinny, would you be able to play with me?" How one mom took her son's words to heart
Distance to centroid: 49.44645237338492 - New: You've got 1 more day to sign up for #Obamacare if you want coverage to start March 1. Everything you need to know:
Distance to centroid: 50.169948331818794 - New: When you're sick, the last thing you want to do is get out of bed to see a doctor. These apps bring the doc to you!
Distance to centroid: 50.17723490849778 - New: "If you got skinny would you be able to play w/ me?" How one mom took her son's words to heart
Distance to centroid: 50.51600299001459 - New: Why you fell in love with your honey, sweetheart, shnookums, boo, or whatever you call your significant other:
Distance to centroid: 51.040155374406176 - New: Something on your mind? Know of a topic you'd like to see covered? Now you can e-mail us at OPED.Health@cnn.com. We'd love to hear from you!
Distance to centroid: 51.588307132967 - New: RT @jdwilson2: Big takeaway from lunch: Your relationships WILL change after #weightloss. HOW they change is only partly up to you #YWM2013
Distance to centroid: 51.70596532313698 - New: Today's #getfit inspiration @Shape_Magazine: You have a choice. You can throw in the towel or you can use it to wipe sweat off your face.
Distance to centroid: 51.73420327244113 - New: RT @eatsmartbd: Q3 A #snack should be like a mini meal to give you a boost w/out weighing u down. #healthtalk
Distance to centroid: 51.96145773937011 - New: RT @RachelBegunRD: when you find enjoyment in food and exercise, the discipline part gets easier :-) @FloYEdmondson #healthtalk
Distance to centroid: 51.99551910086351 - New: Which snack is better for your heart: popcorn or pretzels? Take the quiz and find out how well you know your heart:
Distance to centroid: 52.10494848849015 - New: Did you know that love and sexual desire active different parts of the brain?
Distance to centroid: 52.176493375583455 - New: RT @FedFamSC: @cnnhealth @Savingdaniel13 Stephanie, you and Daniel ROCK for doing this. YOU are fighting the stigma! #cnnparents
Distance to centroid: 52.28317289286288 - New: RT @FitnessMagazine: "A good workout is when you make your dri-fit shirt look like false advertising." #FitQuote
Distance to centroid: 52.29837661254548 - New: Did you know that microwave popcorn can be toxic to your health? @Joybauer shares how you can safely enjoy this snack:
Distance to centroid: 52.31656206320661 - New: If you had #Alzheimers would you hide or share your diagnosis? Join  @CNN @alzassociation Tues 3 pm ET to discuss
Distance to centroid: 52.35422557121386 - New: Want to find your zen place? These cities offer you the best shot at avoiding stress.
Distance to centroid: 52.3576726012459 - New: Allergies stopping you from getting a pup? These dog breeds may be perfect for you:
Distance to centroid: 52.3576726012459 - New: Allergies stopping you from getting a pup? These dog breeds may be perfect for you:
Cluster 7:
Distance to centroid: 63.80676561315598 - New: WHO #Ebola response chief says virus still spreading due to lack of change in behaviors
Distance to centroid: 65.49646505969741 - New: .@WHO says #Ebola outbreak in West Africa is one of the "most challenging" they've ever faced
Distance to centroid: 65.51393377456952 - New: RT @cnnbrk: Texas health officials: 1st #Ebola patient diagnosed in U.S. developed symptoms after returning from W. Africa.
Distance to centroid: 65.67922454757102 - New: 4 more aid workers flown back to US for Ebola monitoring (pulled overnight)
Distance to centroid: 66.5386519888259 - New: No sign of #Ebola for #CDC lab worker feared exposed weeks ago
Distance to centroid: 67.07413534017633 - New: Health care worker in New Jersey tests negative for #Ebola, state says
Distance to centroid: 67.78248275274916 - New: Emails reveal WHO delayed declaring Ebola emergency due to political considerations
Distance to centroid: 67.96667379227411 - New: Human trial of experimental #Ebola vaccine to start next week. Would you volunteer?
Distance to centroid: 68.251375426854 - New: American emergency rooms prepare as Ebola fear spreads @jechristensen
Distance to centroid: 68.44073865294042 - New: Secret burials thwarting efforts to stamp out #Ebola, says UN
Distance to centroid: 68.86169876005773 - New: #Ebola still spreading in western Sierra Leone, Guinea's forest, UN says
Distance to centroid: 68.93227397048223 - New: What's it like inside the Ebola hotzone? An American doctor who had Ebola is back in Africa
Distance to centroid: 69.06601900296849 - New: Donors and WHO responded too slowly to West Africa #Ebola outbreak, report says
Distance to centroid: 69.33413789240065 - New: CDC director 'confident' can get to zero #Ebola cases
Distance to centroid: 69.40429851651065 - New: One shot or two? Many questions unresolved in #Ebola vaccine race
Distance to centroid: 69.65002326011759 - New: #Ebola cases near 16,000, Seirra Leone to overtake Liberia soon with most cases: WHO
Distance to centroid: 69.67803863907845 - New: South Korea to fly medical workers to Europe if infected fighting #Ebola
Distance to centroid: 69.68024754973641 - New: Simple intravenous fluid could save many #Ebola patients, specialists say
Distance to centroid: 69.71136128790467 - New: Media, politicians fueled public's fear, says NY #Ebola doctor
Distance to centroid: 69.93847892056085 - New: Guinea schools reopen, but #Ebola fears still keep many home
Cluster 3:
Distance to centroid: 55.710542321510665 - New: The treatment time for prostate cancer may be cut in half, thanks to a new study.
Distance to centroid: 57.40458634936777 - New: Vegetarians who eat fish could be greatly reducing their risk of colon cancer.
Distance to centroid: 59.39049531547031 - New: For women with early stage breast cancer, minimally invasive surgery may be better than mastectomy, says new study.
Distance to centroid: 59.74190365176769 - New: Most patients who undergo brain surgery for #epilepsy satisfied with choice, study suggests
Distance to centroid: 59.78955179076838 - New: #Mammograms now in 3D, and they can increase invasive breast #cancer detection rates by as much as 40 percent.
Distance to centroid: 59.859053475038486 - New: 44.81%: Chance that a man will develop an invasive form of #cancer in his lifetime
Distance to centroid: 61.07409704830589 - New: Customers raise money to send #Costco employee with terminal cancer on vacation
Distance to centroid: 62.1904455105122 - New: Angelina Jolie underwent a mastectomy to prevent breast cancer, sparking a discussion about the BRCA1 gene.
Distance to centroid: 62.551160122932025 - New: This dress was inspired by a microscopic view of #cancer cells. See 9 others:
Distance to centroid: 62.71253773642319 - New: Years later, stress training pays off for cancer patients
Distance to centroid: 62.79048981110639 - New: Cancer patients in Canada got weak doses of chemo drugs
Distance to centroid: 63.399809430385886 - New: Texas girl, 4, who wanted to ‘shake off’ cancer with Taylor Swift passes away
Distance to centroid: 63.71141210255105 - New: New @CDCgov report shows blacks die earlier than whites due to homicides, heart disease and #cancer
Distance to centroid: 63.882073017209635 - New: Woman faked terminal brain #cancer to dupe community, police say
Distance to centroid: 64.64805851585236 - New: Double blow for Roche as #Alzheimer’s, breast #cancer studies fail
Distance to centroid: 64.90220059257754 - New: Family walking from #Disneyland to #Disney World to honor sister who died of #cancer
Distance to centroid: 64.92143320365412 - New: Ovarian Cycle aims to raise awareness of ‘silent killer,’ funds for #cancer research
Distance to centroid: 64.98116982385034 - New: HCA hospitals halt use of uterine fibroid surgical tool linked to spreading #cancer
Distance to centroid: 64.99110183873043 - New: Breast Cancer Gene May Be Tied to Early #Menopause
Distance to centroid: 65.15899791802755 - New: Prenatal blood tests detect cancer signal in some women
Cluster 0:
Distance to centroid: 61.20225818693781 - New: meditating reduces stress, allows better blood flow to the #brain’s frontal cortex--that’s the area we use to make decisions. –SG #AskSanjay
Distance to centroid: 61.37411245494129 - New: Why hasn't the FDA released the brand name of tainted salad mix linked to cyclospora? @drsanjaygupta explains
Distance to centroid: 62.68009629022828 - New: Dreading the germs kids always seem to bring home the 1st few wks of class? Avoid the 'back-to-school plague'
Distance to centroid: 64.03810643047566 - New: Learn how the experimental serum given to the first American #Ebola patients was created.
Distance to centroid: 65.85787088020196 - New: A new gadget developed at the Mayo Clinic prevents stomach acid from entering the esophagus:
Distance to centroid: 66.08042799275279 - New: RT @NewDay: As the second case of #MERS is confirmed in the U.S., here are 5 things to know about the virus:
Distance to centroid: 66.4952559344226 - New: FDA knew for years that the scopes behind the superbug virus was a risk @elizcohencnn
Distance to centroid: 66.62888823465482 - New: RT @drsanjaygupta: how did the director of the CDC decide to bring a patient with ebola to the US? I asked him.
Distance to centroid: 66.73979836441337 - New: At 102, Ruth Frith was the oldest competitor at the World Masters Games. #Liveto100 secrets:
Distance to centroid: 66.86484264700549 - New: RT @jechristensen: The Kentucky governor sits down with Dr. Gupta &amp; the #cnnexpress to talk about #obamacare.
Distance to centroid: 67.33339271036269 - New: This state has the highest use of mood-altering drugs
Distance to centroid: 67.42440355939509 - New: . @TonyYounMD questions the ethics behind the latest trend in cosmetic surgery for Asians
Distance to centroid: 67.49843761341923 - New: Top officials at the Phoenix VA denied the existence of a secret patient waiting list. Doctors says they're lying.
Distance to centroid: 67.67893745200897 - New: Is super weed super bad? The amount of the intoxicating chemical in marijuana has risen since the 1970s
Distance to centroid: 67.96810247205184 - New: RT @MontefioreNYC: The future of #heart treatment: How #StemCell research can improve the heart
Distance to centroid: 68.34922830072983 - New: RT @CNNMoney: The ranks of the #uninsured plummeted in early 2014 because of #Obamacare
Distance to centroid: 68.82666961214375 - New: .@sllibog The patient traveled from Liberia to Texas. He was visiting family in the U.S. #EbolaQandA
Distance to centroid: 68.87196485232165 - New: ICYMI over the weekend: Health officials believe #MERS has been transmitted inside the U.S.
Distance to centroid: 68.88821804530701 - New: Triathlete conquers first time in the ocean
Distance to centroid: 68.93272941475968 - New: @MissEmelie Hey! Email us at Jacque.Wilson@turner.com with the proper credit
Cluster 15:
Distance to centroid: 37.243972138101384 - New: On the flu shot... RT @Angietweets12: @cnnhealth no way I'll let my body fight off any foreign invaders with the nutritious food I eat
Distance to centroid: 38.55369683420266 - New: #Flu picking up steam across the U.S. Do you have any questions for our doctors? Send 'em with #fluQs
Distance to centroid: 38.59893578672003 - New: RT @CNNMoney Soda sales are losing their fizzzzzz. (Could be good for the bottled water industry?)
Distance to centroid: 38.77080316363966 - New: You count calories, hit the gym and lose 1 lb. Your hubby drops 10 doing nothing. What's up with that??http://www.cnn.com/2014/02/20/health/upwave-weight-gender/index.html via @upwave
Distance to centroid: 39.86635317111248 - New: Looks like somebody's got a case of the "Mondays." Here are 10 stories that will make you smile
Distance to centroid: 40.37011370700734 - New: RT @solidfreshdope: It would be nice to see how Vivian is fairing after the move to CO. and the use of medicinal marijuana. Sequel? @drsanj…
Distance to centroid: 40.42936008329277 - New: RT @NPF: A3: Itching is a major symptom of #psoriasis. One of the simplest ways to control itch is by keeping the skin moisturized. #healthtalk
Distance to centroid: 40.90057083381401 - New: MT @WHO: After tobacco control, maintaining healthy body weight, reg physical activity is the second most important way to prevent #cancer
Distance to centroid: 41.26347240684722 - New: RT @AskInsuranceQ: A10: "The trick is to enjoy life. Don't wish away your days, waiting for better ones ahead!" Majorie Hinckley #HealthTalk
Distance to centroid: 41.418429213584595 - New: RT @mellijellybean: @cnnhealth Sadly, yes. That's a REALLY high BMI &amp; I don't think those kids could participate in the activities planned …
Distance to centroid: 41.45995056360104 - New: Should high school students be sleeping in? One study says yes. Feel free to hit the snooze button
Distance to centroid: 41.57255768481695 - New: RT @DrRalphRogers: The death of #RobinWilliams has everyone talking about #Depression. Exercise can have a huge impact on sufferers - take …
Distance to centroid: 41.57633621093819 - New: Imagine living w/o a pulse. Scientists are engineering a replacement for the human heart -- one that doesn't beat
Distance to centroid: 41.57633621093819 - New: Imagine living w/o a pulse. Scientists are engineering a replacement for the human heart -- one that doesn't beat
Distance to centroid: 41.711096195130914 - New: RT @eatsmartbd: Yes! Self interest is not being selfish! RT @SSDdotTV: A9: healthier you are, the longer you'll be around for your loved ones. #HealthTalk
Distance to centroid: 42.126966003926135 - New: 72 percent of singles say animals influence whether or not they'd date someone. Which pets are the biggest turnoffs?
Distance to centroid: 42.126966003926135 - New: 72 percent of singles say animals influence whether or not they'd date someone. Which pets are the biggest turnoffs?
Distance to centroid: 42.18326443868528 - New: RT @eatsmartbd: A5 And don't forget that #exercise boosts blood flow to all the right places too! (I'm talking abt your brain!) #healthtalk #menshealth
Distance to centroid: 42.18824266937501 - New: So you don't look like a supermodel in yoga pants. Here's how to get over exercise shyness and work it at the gym:
Distance to centroid: 42.18824266937501 - New: So you don't look like a supermodel in yoga pants. Here's how to get over exercise shyness and work it at the gym:
Cluster 18:
Distance to centroid: 49.45347343518964 - New: It's time to get your brain in shape for #Alzheimers &amp; #Brain Awareness Month! Workout those neurons...
Distance to centroid: 49.46964402632307 - New: Could you handle 501 days in space with your spouse? Best responses will get an RT!
Distance to centroid: 50.96445596491918 - New: What's your commute like? Does it affect your mood? Email elizabeth.landau@turner.com and you could be part of a #CNN story!
Distance to centroid: 51.28245227732091 - New: Go ahead, shout out the F-word! It's good for your health (plus more etiquette rules to break):
Distance to centroid: 51.28245227732091 - New: Go ahead, shout out the F-word! It's good for your health (plus more etiquette rules to break):
Distance to centroid: 51.51202480518757 - New: RT @drmannyonFOX: Take this short quiz today to test your knowledge of #alcohol and #pregnancy.
Distance to centroid: 51.72682646036293 - New: Antibiotics may mess w/ your baby's metabolism -- and other thing we learned from medical journals this week:
Distance to centroid: 51.95680522986618 - New: RT @eatsmartbd: A4 Also a gd idea to mix up your #diet + eat smaller, more frequent meals to boost #metabolism. #healthtalk
Distance to centroid: 53.26157760525963 - New: How far will you go? @upwave can help w/ these 5 tips on increasing your stamina
Distance to centroid: 53.29091105646418 - New: RT @CNN: Did you know crafting can protect against aging &amp; help with anxiety? This is your brain on knitting:
Distance to centroid: 53.46453210462596 - New: What is good for your heart, may lift your mood, will help you live longer and tastes delicious? Find out here:
Distance to centroid: 53.609042428587365 - New: RT @eatsmartbd: A2: U have to know your body: some pple need to eat b4 #exercise while others pref pumping on empty! #healthtalk #menshealth
Distance to centroid: 53.71327630987562 - New: Looking to sculpt your legs? @jillianmichaels demonstrates three exercises for you to tone your inner and outer thighs
Distance to centroid: 53.715972648681124 - New: Foodborne illnesses increase 44%, report says. Here's how to keep your food safe:
Distance to centroid: 54.02320645441693 - New: Need another reason to quit smoking? Doing so can half your risk of oral health problems:
Distance to centroid: 54.02320645441693 - New: Need another reason to quit smoking? Doing so can half your risk of oral health problems:
Distance to centroid: 54.0954795325657 - New: Keep hands off the treadmill bars while you walk; you're limiting your calorie burn! Boost your treadmill workout:
Distance to centroid: 54.0954795325657 - New: Keep hands off the treadmill bars while you walk; you're limiting your calorie burn! Boost your treadmill workout:
Distance to centroid: 54.301030510705225 - New: The downside of your college degree? It could decrease your chances of getting hitched, according to a new study
Distance to centroid: 54.31702327343691 - New: It's Monday and your eyes already hurt from staring at your computer screen! Learn how to avoid digital strain
Cluster 12:
Distance to centroid: 43.7728098470033 - New: RT @kimmcdt: @BobBarnett @cnnhealth @upwave Of course #soap and water work best.  Our mothers were right!!
Distance to centroid: 43.96957075767255 - New: 417 miles, 24 days — and 1 messed-up river. See @jdsutter’s epic journey down the most #endangeredriver in America:
Distance to centroid: 45.010490030816115 - New: RT @DavidKirsch: @cnnhealth they know that movement is good for their body - heart, brain and muscles.  and they like doing it too! #fitfam…
Distance to centroid: 45.085272278797625 - New: RT @EatThisNotThat: "Life expectancy would grow by leaps and bounds if green vegetables smelled as good as bacon."—Doug Larson
Distance to centroid: 45.213388400433594 - New: RT @mattletten: @smccollo my health and vitality improved immensely when I shifted from vegetarian to vegan. It aids in my fitness and recovery #healthtalk
Distance to centroid: 45.22467343159462 - New: RT @eatsmartbd: A5 #Salmon and fatty fish are rich in omega 3s - impt for heart health, keep mood stable + control BP. #healthtalk
Distance to centroid: 45.429497980338965 - New: Carlos Costa and Joana Christina at Interdisciplinary Society for Quantitative Research in Music &amp; Medicine
Distance to centroid: 45.5107686376961 - New: #IBD? What food do you miss most? You could be eating it after a recipe makeover by @joybauer. @ us your dish and #joyrecipemakeover
Distance to centroid: 45.61448591408003 - New: RT @joyofnutrition: A7: Plan ahead and share a meal. 1/2 portions, small plates are a big trend in restaurants. #healthtalk
Distance to centroid: 45.68272944988241 - New: RT @NPHW: Q5: Today's #NPHW theme is prevention. How can your community better prevent disease and illness? #NPHWchat
Distance to centroid: 45.86693015594392 - New: Want flatter abs, stronger legs, and better endurance? Train to run a race! Here's how to get started:
Distance to centroid: 45.86693015594392 - New: Want flatter abs, stronger legs, and better endurance? Train to run a race! Here's how to get started:
Distance to centroid: 45.86693015594392 - New: Want flatter abs, stronger legs, and better endurance? Train to run a race! Here's how to get started:
Distance to centroid: 45.9115822393328 - New: RT @PDDinnovation: Great ideas from #CNN10 – which will have the most impact? Fantastic articles from @jdwilson2, @lizlandau and others: ht…
Distance to centroid: 46.06467901062993 - New: RT @leonardkl: I really thought it was key to have dinner as a family every night. Mom cooked healthy meals and we had conversations. #FitF…
Distance to centroid: 46.365484197913965 - New: Stress is bad for your #heart and mind. 6 ways to kick it to the curb:
Distance to centroid: 46.39875341334043 - New: RT @RachelBegunRD: A5: Stress management soooo impt. one of biggest contributors to #heartdisease and #obesity. Let's get good tips going! #healthtalk
Distance to centroid: 46.69227220344101 - New: RT @AngelaTague: @EverydayHealth A1: Maintain my recent weight loss, tone up and continue to follow a whole foods diet at least 75% of the time. #healthtalk
Distance to centroid: 47.12593584249615 - New: Stressing out over tonight's Valentine's Day plans? Take a minute and regroup. Anxiety might worsen MS symptoms
Distance to centroid: 47.271312165007615 - New: Chef Chris Ross was eating 4,000 cals/day tasting his food. So he quit -- and lost 130 lbs
Cluster 19:
Distance to centroid: 49.211578866041876 - New: E. coli outbreak sickens 17 people in five states. @CDCgov warns consumers to skip sprouts from one company:
Distance to centroid: 50.1209729330435 - New: Boston declares a health emergency as the flu outbreak hits 41 states. Find out how many people are sick so far:
Distance to centroid: 50.273294533684144 - New: CNN and @CIRonline "Rehab Racket" investigation prompts outrage, government hearing. More on @AC360 tonight at 8 pm ET. @DrewGriffinCNN
Distance to centroid: 52.767682855538105 - New: When the choice isn’t yours: Families of pediatric cancer patients live in fear amidst #measles outbreak
Distance to centroid: 52.81626115755671 - New: .@ErdMutter92 @DrFriedenCDC said as long as outbreak continues in Africa, it could happen again. Avoid people who are sick #EbolaQandA
Distance to centroid: 53.076227605199605 - New: RT @MadisonCNN: Great hedline RT @UNICEF: 1.2 billion reasons to celebrate – #India has not had a reported case of #polio for 3 years
Distance to centroid: 53.65830264007068 - New: RT @WHO: The United Arab Emirates (UAE) has notified WHO of a laboratory confirmed case of #MERS-CoV infection in a 75 year old Omani male.…
Distance to centroid: 55.223811209011345 - New: #Measles may become ‘endemic’ without vaccination, proper clinical diagnosis, CDC official says
Distance to centroid: 55.31571313018841 - New: .@WHO: +200K new cases of leprosy are diagnosed per year. Make it a top issue for @CNN/@jdsutter? VOTE:
Distance to centroid: 55.59017047358331 - New: Dr. Peter Piot discovered Ebola 40 years ago. His 3 reasons why this outbreak is different:
Distance to centroid: 56.16839255228945 - New: CDC worries mosquito-borne virus could hit U.S. after major outbreak in the Caribbean.
Distance to centroid: 56.251837134574366 - New: Health officials are investigating a possible tuberculosis exposure in the NICU at a Nevada hospital.
Distance to centroid: 56.32882968636102 - New: Scientists ask if #Ebola #vaccine immunizes as well as kills
Distance to centroid: 56.4448585954584 - New: RT @cnnbrk: HIV virus now detected in child that scientists previously said was functionally cured.
Distance to centroid: 56.50851182406411 - New: WHO calls for more #measles vaccination in Europe as large outbreaks persist
Distance to centroid: 56.87258569355633 - New: RT @DanielleCNN: JUST IN: CDC confirms to @SanjayGuptaCNN the number of #meningitis cases has gone up: 119 sick, 11 deaths.  #cnn
Distance to centroid: 56.8806959415652 - New: NOAA says a virus killed hundreds of dolphins along the east coast
Distance to centroid: 56.88847361547068 - New: A tenth patient has now been diagnosed SARS-like virus. Could it be the next epidemic? #epidemic #sars
Distance to centroid: 57.03446396065683 - New: .@TheeJodye Very deadly. Experts estimate fatality rate of current outbreak is 71%. No approved treatments/vaccines
Distance to centroid: 57.18455886010927 - New: RT @DanielleCNN: Deadly #Ebola outbreak in Guinea continues. @WHO scales up response.  @DrSanjayGupta &amp; I decided to #GoThere. We leave ton…
Cluster 11:
Distance to centroid: 37.9070430284164 - New: RT @DrFriedenCDC: Better health for ALL Americans means focusing our efforts where most needed. Looking forward to #NPHWchat
Distance to centroid: 37.97323075077849 - New: RT @SueScheff: #CNNParents HUGE DENIAL, I deal w it weekly. Sadly I will have the same parent call 2 years later, teen is now 18, &amp; unless …
Distance to centroid: 38.02968895589842 - New: RT @kellywallacetv: What's the advice when your child wants to stop a physical activity &amp; you know it's good for them to keep doing it? #fi…
Distance to centroid: 38.43197889377805 - New: How does #Ebola spread? What are the symptoms? Why was someone infected let on a plane? Answers to these Qs &amp; more
Distance to centroid: 38.4603639601672 - New: RT @namibycandy: Quinoa flour pancakes topped w/ almond butter &amp; strawberries! 😊 RT @cnnhealth What's in ur breakfast? Show us for RT!
Distance to centroid: 38.91548682579058 - New: RT @loseit: A8: Fun grocery store game: Get a fruit or vegetable of every different color! Use to internet to learn how to cook them! #healthtalk
Distance to centroid: 39.324727225517954 - New: This isn't your mama's gym class! Phys ed teachers are using everything from archery to Zumba to combat #obesity
Distance to centroid: 39.83126682796323 - New: We're almost there! Help us reach 100,000 followers #FF for breaking #health news, tips &amp; features on living better
Distance to centroid: 39.88569214620546 - New: RT @groovyplanteatr: my 7yo grandson doesn't even know he's "gone vegan", he weaned himself from eggs, dairy because he like the other food better. #HealthTalk
Distance to centroid: 39.93467792131026 - New: RT @NPHW: #NPHWchat has been an amazing conversation! Let's keep public health top of mind all week &amp; beyond with the hashtag #NPHW. KEEP I…
Distance to centroid: 39.944638980000164 - New: RT @JoshLevs: Read, see, &amp; hear recovered U.S. #Ebola patient describe how he feels as discharged from hospital:
Distance to centroid: 39.976627968335606 - New: RT @AllergyReliefNY: .@cnnhealth @kinsa Wear a hat &amp; big sunglasses espec on windy days to keep pesky pollen from eyes &amp;nose, wash hair/fac…
Distance to centroid: 40.202786233768954 - New: Dan had lost weight before, so this time he set a dif. kind of goal — "From Fatman to Ironman"
Distance to centroid: 41.30081449126201 - New: One more reason to workout: Exercise might help ward off Alzheimer's -- even if you're already at risk:
Distance to centroid: 41.59856614115584 - New: RT @LeislStoufer: #CNNParents my son suffers from Bi-Polar Disorder. We have to FIGHT for treatment.  If he had any other illness we would …
Distance to centroid: 41.67943734580707 - New: Interesting! RT @cspi: A9 Buffalo Wild Wings and Applebee's both had some pretty extreme dishes. #healthtalk
Distance to centroid: 41.72394063624902 - New: RT @KarenAnselRD: One of the best diet tools around &amp; u can do it on your phone RT @cnnhealth: No more BUTS! Time to start a food log
Distance to centroid: 41.79205850347893 - New: RT @DanielAdams86: Boston Police looking for missing autistic boy from E. Boston. Help find Jeffery. Red tshirt, sox sweatshirt &amp; hat, jean…
Distance to centroid: 41.82523381826467 - New: Today's #getfit tip @LaurenConrad: Take a hike! Any time you feel bored, stressed or angry, go for a walk outside
Distance to centroid: 41.85957782858061 - New: Today's #getfit tip: Keep a log of your activities for 24 hrs. You'll find the time to slip in some exercise
Cluster 14:
Distance to centroid: 44.536392933277696 - New: Moms should let their babies cry themselves back to sleep after waking up during the night, finds a new study:
Distance to centroid: 44.536392933277696 - New: Moms should let their babies cry themselves back to sleep after waking up during the night, finds a new study:
Distance to centroid: 45.22200496135821 - New: 1 in 8 U.S. babies is born pre-term. @LIFE takes a look at how hospitals saved these tiny humans 75 yrs ago
Distance to centroid: 45.73564712123075 - New: .@Insperity formed a GIANT human heart before kicking off their awareness walk for @American_Heart #heartmonth win!
Distance to centroid: 47.79891324539274 - New: How one brave newlywed bride lost her husband and her leg, but not her faith, after a terrible accident:
Distance to centroid: 48.12647641023078 - New: Babies die. Hospital halts heart surgeries. Parents want answers. An investigative piece by @elizcohencnn
Distance to centroid: 48.5802811170124 - New: A teenager left fighting for her life after smoking synthetic marijuana made a dramatic recovery.
Distance to centroid: 48.987038272380694 - New: Woman who thought she was suffering from a broken heart actually had brain infection
Distance to centroid: 49.719013618850965 - New: A young girl killed herself after #youtube pleas. Read the heartbreaking story:
Distance to centroid: 50.01574495542697 - New: Docs use skin from woman's arm to replace scalp after freak accident with power drill
Distance to centroid: 50.127123624837864 - New: Gov. Christie just had lap-band surgery. This father/son duo lost 260 lbs after a similar procedure
Distance to centroid: 50.790255279425345 - New: Drug that caused 'elephant man' side effect makes comeback after 2006 disaster
Distance to centroid: 51.09409910157576 - New: She lost 100 lbs -- and surprised her Army husband when he returned from Afghanistan
Distance to centroid: 51.44708070896845 - New: Mom of 8yr-old heart transplant recipient to anti-vaccine parents: 'I understand fearing for your child' @cnnireport
Distance to centroid: 51.51302417817367 - New: One more dead after contracting hantavirus at Yosemite National Park
Distance to centroid: 51.613113422326144 - New: RT @elizcohencnn: Great story from @debgcnn - woman whose intuition led to early cancer detection - twice! Amazing empowered patient.
Distance to centroid: 51.914357096350244 - New: Family of woman in need of heart and lung transplant wearing #Christmas socks to spread #hope
Distance to centroid: 52.00248394706385 - New: Man gets #bionic eye, sees family for first time in 10 years
Distance to centroid: 52.184064354604956 - New: Chris and Leslie both had the #flu. He has fully recovered. She's on a ventilator, fighting for her life
Distance to centroid: 52.23155311111741 - New: Industry makes $7,000 for each tobacco death, health campaigners claim
Cluster 24:
Distance to centroid: 45.88757642444728 - New: Man suffering memory loss after mosquito bite during vacation in #Bali, report says
Distance to centroid: 46.89437884369325 - New: RT @cnnbrk: Three scientists share Nobel Prize in Medicine for work on cells that form a positioning system in brain.
Distance to centroid: 47.99941701895051 - New: It's become public enemy No. 1 in nutrition. How much sugar is in your drinks?
Distance to centroid: 48.12396301148415 - New: Have more thoughts on raising a child w/ mental illness? Continue here #CNNParents &amp; in the comments section @CNN
Distance to centroid: 48.47650516047305 - New: RT @RachelBegunRD: A1 Fact: Heart disease is THE leading cause of death for both men AND women. It is responsible for 1 in 4 deaths in America #healthtalk
Distance to centroid: 48.75682535488649 - New: RT @HellaWellaEats: A5: in addition to beans, nuts, seeds, keep lots of spices in the pantry. Added flavor w/ minimal calories—plus health benefits. #healthtalk
Distance to centroid: 49.12070868448044 - New: RT @DrFriedenCDC: .@cnnhealth We’ve seen severe #flu illness in young &amp; middle-aged adults. Even healthy ppl can get very sick. Not too lat…
Distance to centroid: 49.16134191404329 - New: Hold on to your foam fingers, football fans: There's a new sport in town. @dailyburn goes inside @TheGridLeague
Distance to centroid: 49.70125420993307 - New: A new report estimates the number of annual ER visits involving energy drinks shot up in 2011.
Distance to centroid: 49.70125420993307 - New: A new report estimates the number of annual ER visits involving energy drinks shot up in 2011.
Distance to centroid: 49.83422308572345 - New: @EndVivisection Yes the mice were surgically attached to share blood in one kind of experiment. Injected w/ protein or plasma in another.
Distance to centroid: 50.20509336207425 - New: 20 #healthcare workers in Florida were told to stay home after potential #MERS exposure
Distance to centroid: 50.63956172682355 - New: Cost of friends &amp; relatives caring for elderly in U.S. = $522 billion a year, @RANDCorporation says. Are you one of these unseen workers?
Distance to centroid: 50.70151954771732 - New: RT @KristinMeekhof: A5 making health information available in multiple languages helps spread the word #nphwchat
Distance to centroid: 50.76809281824914 - New: Minnesota high school wrestler paralyzed in freak accident learns to walk again
Distance to centroid: 50.98872737258224 - New: Bently the dog has tested negative for #Ebola #Dallas city officials say. He's still in quarantine
Distance to centroid: 51.029221604378876 - New: RT @AllergyReliefNY: .@cnnhealth @JamieLW8 in most areas early-mid morning &amp; lowest late in the day/early evening &amp; windless days #CNNAller…
Distance to centroid: 51.04923582483853 - New: Children exposed to this drug while in the womb face a higher risk of developing behavior problems:
Distance to centroid: 51.04923582483853 - New: Children exposed to this drug while in the womb face a higher risk of developing behavior problems:
Distance to centroid: 51.800390265564054 - New: We knew at some point this would happen @DrFriedenCDC says about #Ebola patient diagnosed in U.S.
Cluster 17:
Distance to centroid: 47.01335750113282 - New: RT @autismspeaks: Dad Creates Autcraft, Safe Haven for Minecraft Players with Autism:
Distance to centroid: 47.23410444235132 - New: RT @Robinsbite: @CSPI A7: as my 3 yr old says "save this for later" when talking about to-go containers! Smart kid! #healthtalk
Distance to centroid: 47.51304308601402 - New: RT @EinsteinMed: A7: It has been used for over 40 years and is safe for most people with diabetes.-DrC #healthtalk
Distance to centroid: 48.205082310089914 - New: RT @UNAIDS reports a gap of US$7.2 bn in 2011 to reach the global #HIV targets for low &amp; middle income countries for 2015
Distance to centroid: 48.82465988886029 - New: RT @cortbloomer: @cnnhealth Biking can be dangerous, but it doesn't have to be. Let's look for solutions to safety issues. @BikeLeague is s…
Distance to centroid: 48.89676392836402 - New: RT @CNNMoney: This website lets doctors bid for patients, lowering the costs for procedures like tummy tucks and hip replacements.
Distance to centroid: 48.959188074574385 - New: RT @denisermt: @cnnhealth A4) For free time playtime, we visit the park, playground or the beach for unstructured, let kids be kids playtim…
Distance to centroid: 49.25779106868563 - New: RT @hollyejacobs: @EverydayHealth A3: In choosing treatment for #cancer DON'T google. Ask Dr. for places to research and learn about treatment. #HealthTalk
Distance to centroid: 50.25394796486188 - New: "Record your voice for loved ones while you still can" @CDCgov launches 2nd anti-smoking campaign
Distance to centroid: 50.82881210389537 - New: .@drsanjaygupta is rarely at a loss for words. Read his interview w/ Dr. Kevorkian, then watch @CNN at 4:30 for more:
Distance to centroid: 50.87020901445848 - New: What is your biggest regret of 2013? We're looking for stories for an upcoming piece. Email elizabeth.landau@turner.com.
Distance to centroid: 50.8777153345222 - New: Like Yoga? Like Sex? You're in for a treat. @jillianmichaels shows you how to make your moves on the mat count in bed...http://bit.ly/SxucLA
Distance to centroid: 50.8777153345222 - New: Like Yoga? Like Sex? You're in for a treat. @jillianmichaels shows you how to make your moves on the mat count in bed...http://bit.ly/SxucLA
Distance to centroid: 51.009145210592465 - New: RT @drsanjaygupta: 37 states have increased funding for mental health. Texas will spend 250 mill next 2 years. Will help address stigma #cn…
Distance to centroid: 51.1375980010575 - New: "Celebrity supercomputers" for $500. This machine was a "Jeopardy" champ. Now it’s helping #cancer patients:
Distance to centroid: 51.21790587792727 - New: 5 years ago an infant was left alone buried in the rubble for 4 entire days.Check her out now
Distance to centroid: 51.32850314471027 - New: Recovery time plays key role for NCAA’s March Madness athletes
Distance to centroid: 51.51128821185112 - New: #FDA program for experimental drugs is called compassionate use. Some say it could use more compassion
Distance to centroid: 51.68491711914968 - New: Anyone aged 15 to 65 should be tested for #HIV, new draft recommendations say. Do you agree?
Distance to centroid: 51.86563609561466 - New: RT @GorillaFrog: Please follow this young girl w/ stage 4 cancer, whose wish is for 100k followers. @vanessariddle Keep fighting...
Cluster 20:
Distance to centroid: 60.09780958568097 - New: "If you doubt there's a dental health crisis in America, walk into any emergency room"
Distance to centroid: 62.219097581553264 - New: Children of Chernobyl seek answers: Are their #health problems caused by lingering radiation?
Distance to centroid: 62.41554271473196 - New: Do you make time for your heart health? Only 12 percent reported making time for three essential health habits
Distance to centroid: 62.41554271473196 - New: Do you make time for your heart health? Only 12 percent reported making time for three essential health habits
Distance to centroid: 62.57180995251979 - New: Have you traveled to #Seattle lately? Health officials investigating #measles case at the airport:
Distance to centroid: 65.52367133522213 - New: App connects users to virtual #nutritionist for health advice
Distance to centroid: 66.04253453108129 - New: $25 spent on sexual health per woman per year would reduce deaths, says UN
Distance to centroid: 66.57417363143574 - New: US may lower #cholesterol's level of threat to health, report says
Distance to centroid: 66.69415816988422 - New: WHO: Few long-term health problems from Fukushima nuclear disaster
Distance to centroid: 67.63963829380242 - New: How #Catholic #health insurance companies provide #birthcontrol:
Distance to centroid: 67.83300557116321 - New: Extreme #Cold Snap Brings Unexpected Health Risks
Distance to centroid: 68.67905863106476 - New: RT @kellywallacetv: Q's about women's mental health &amp; meds. Join @CNN NOW w psychiatrist @BellevueDoc.
Distance to centroid: 69.01671617117024 - New: RT @PBA_savingsight: Check out this fantastic piece from CNN's "Health Minute" on women's eye health! @cnnhealth
Distance to centroid: 69.5414527459404 - New: Student loans may be bad for young adults' mental health
Distance to centroid: 69.55383460095634 - New: #Ebola health workers face life or death decision on #pregnant women
Distance to centroid: 69.59943764203342 - New: Psychiatrists team with pediatricians to treat child mental health disorders
Distance to centroid: 70.2948012020694 - New: Mental engagement may preserve health literacy in #aging
Distance to centroid: 70.30994822881803 - New: RT @lizlandau: US gets a D+ for failing to support emergency care patients, report says #health
Distance to centroid: 70.50938897058005 - New: Childhood mental health disabilities increased 21% over a 10-year period. Why?
Distance to centroid: 70.65894090708315 - New: Disney gave input on #measles health messages, documents show
Cluster 27:
Distance to centroid: 46.98979430263209 - New: Blood sugar is NOT what matters most for preventing heart disease in people with #diabetes, new study finds
Distance to centroid: 47.25924754768584 - New: RT @AllergyReliefNY: .@cnnhealth also some studies suggest early exposure to 2 or pets may reduce future allergies &amp; asthma #CNNAllergies
Distance to centroid: 49.4825383173369 - New: Sitting less may prevent #diabetes risk factors, new study says. Are you able to move around at work?
Distance to centroid: 49.49313564142214 - New: RT @tobaccofreefla: .@EverydayHealth A8. Quit smoking to reduce the risk. 1 year after quitting, risk of heart attack can be cut in half. #HealthTalk
Distance to centroid: 49.635754066250165 - New: Good &amp; bad: the decline in smoking rates could actually increase deaths from lung cancer
Distance to centroid: 49.766681753127386 - New: RT @drsanjaygupta: exposing kids to #peanuts early in life may actually keep them from developing an #allergy --
Distance to centroid: 50.646540553724876 - New: .@WHO: 800 women die from pregnancy or childbirth-related complications each day. Save a life, #giveblood.
Distance to centroid: 50.73133218484675 - New: BPA, phthalates linked to fertility problems and miscarriages in new research from @ReprodMed #IFFSASRM
Distance to centroid: 51.19167736090117 - New: Early research suggests that biologics reduce blood vessel damage &amp; protect against certain types of heart disease.
Distance to centroid: 51.87321160355355 - New: Worried about heart defects, some NCAA schools adopt routine cardiac testing of athletes
Distance to centroid: 51.9269382927404 - New: Bottle feeding infants may impact child's eating behavior up to 6 years later @AAPNews study says
Distance to centroid: 51.92914196669731 - New: Salt Lake City woman diagnosed with rare disease that caused enlarged heart during #pregnancy
Distance to centroid: 52.37473798768338 - New: RT @HeartDiseases: Study in @CircAHA suggests #blueberries and #strawberries may cut women's heart attack risk:
Distance to centroid: 52.48486538862045 - New: RT @EinsteinMed: A5: Other risk factors include having a close relative with diabetes or being over 45 years old. –DrC #healthtalk
Distance to centroid: 53.10631722403189 - New: Highly processed foods tied to addictive eating, may pave way for #obesity treatment
Distance to centroid: 54.19293687010467 - New: Winter weather alerts may signal greater fall risk for elderly
Distance to centroid: 54.42065789336749 - New: #obesity during #pregnancy increases your risk of delivering a stillborn baby, a @AmerMedicalAssn study finds
Distance to centroid: 54.769800130308234 - New: RT @EinsteinMed: Women w/gestational diabetes have high risk of developing type 2 RT @Hips_47 Also Lets Not forget About Gestational Diabetes #healthtalk
Distance to centroid: 54.78659843588492 - New: RT @eatsmartbd: A5 Soluble fibers in #wholegrains #oats #beans +other foods are linked to a lower risk of #heart disease #healthtalk #diet
Distance to centroid: 55.263315334838325 - New: Study finds link between financial stress and eating disorder signs in young women
Cluster 2:
Distance to centroid: 44.8213252942464 - New: Gun violence in PG-13 movies has more than tripled since 1985. Do you let your kids watch violent films?
Distance to centroid: 45.15011594721912 - New: Infants are more likely to die in Mississippi than any other state, and huge racial disparities persist. Why? #cnn
Distance to centroid: 46.45350518379733 - New: You are 100 times more likely to be struck by lightning than get serious allergic reaction to #vaccine @drsanjaygupta
Distance to centroid: 47.072552322134555 - New: More than 1 in 3 U.S. adults have prediabetes, and the numbers are rising. Learn how to eat to lower your risk:
Distance to centroid: 47.127740189230074 - New: Craving chocolate? Take a walk! Data finds that people who take walks snack less under stress. More tips:
Distance to centroid: 48.84901017994816 - New: RT @drsanjaygupta: on tv, i always try and remind: those with mental illness more likely to be victims of violence rather than perpetrators…
Distance to centroid: 49.08507371064508 - New: RT @jdwilson2: Not surprising, but still good info for parents: Kids who drink soda, sugary juice weigh more
Distance to centroid: 49.447765970177166 - New: New study links teen #marijuana use  to serious problems later in life. Learn more to protect your kids:
Distance to centroid: 49.584529609790785 - New: One more reason to drink black tea! New data reveals it lowers blood pressure
Distance to centroid: 49.768942056657316 - New: Why don't men on an Asian diet get prostate cancer, but Americans do? Researchers may have found a clue:
Distance to centroid: 49.768942056657316 - New: Why don't men on an Asian diet get prostate cancer, but Americans do? Researchers may have found a clue:
Distance to centroid: 49.768942056657316 - New: Why don't men on an Asian diet get prostate cancer, but Americans do? Researchers may have found a clue:
Distance to centroid: 50.30329731043353 - New: Most people eat more calories on Saturdays than any day of the week. All-week-long tips for reigning in weekend eating:
Distance to centroid: 50.41373510988295 - New: Stressed women, a fitter sitter, a better HPV test, pill confusion, &amp; more in 5 studies you may have missed
Distance to centroid: 50.50842810376558 - New: More are surviving brain injuries than ever before. Good news — unless you're on an organ transplant list
Distance to centroid: 50.68423928597733 - New: Those without a spouse in their forties were more than twice as likely to die early, according to a new study:
Distance to centroid: 50.68423928597733 - New: Those without a spouse in their forties were more than twice as likely to die early, according to a new study:
Distance to centroid: 51.05467139459924 - New: Talk to your kids about #alcohol sooner rather than later: @CDCgov says 1 in 5 high school girls binge drink
Distance to centroid: 51.05567856632635 - New: get this: exercise actually helps prevent alzheimer’s later in life more than brain/memory games. –SG
Distance to centroid: 51.14687162106126 - New: RT @cnnireport: "She's more alike than different," says a father whose daughter has Down syndrome
Cluster 22:
Distance to centroid: 65.0943538861317 - New: Got 5 minutes? Then start your day off right with one of these quick breakfasts:
Distance to centroid: 66.25788942410865 - New: Is parenthood killing your sex life? @goodinbed offers 4 ways to rev it up post-baby
Distance to centroid: 67.48798350214268 - New: RT @eatsmartbd: A6 Looking for ways to make family favorites more healthy? Try some swaps:
Distance to centroid: 67.96167462046466 - New: The best time of day to workout, and 10 ways to get motivated:
Distance to centroid: 68.26274893420702 - New: Start your day off right with one of these quick breakfasts:
Distance to centroid: 69.80622245664117 - New: Feeling less than festive this holiday season? Here are a few easy ways to beat holiday blues.
Distance to centroid: 70.22892502581688 - New: Happy people live longer, healthier lives! 7 ways to boost your #happiness:
Distance to centroid: 70.57373413357152 - New: Yes, it can be done! 10 ways to start your day w/o caffeine tomorrow:
Distance to centroid: 71.48974497271588 - New: Happy World Physical Activity Day! 10 ways to squeeze in exercise into your busy day:
Distance to centroid: 71.7644376912528 - New: Eat some chocolate and other ways to boost your body's feel-good chemicals:
Distance to centroid: 71.87792928711036 - New: #Health Minute: Ways of keeping athletes safe
Distance to centroid: 73.68171852423953 - New: 28 awesome ways to boost energy instantly from @Greatist:
Distance to centroid: 73.91306751521424 - New: 'Abuse-deterrent' OxyContin? Addicts find ways around it
Distance to centroid: 74.05304931099307 - New: Simple ways to feng shui your home:
Distance to centroid: 74.05304931099307 - New: Simple ways to feng shui your home:
Distance to centroid: 74.1326247768117 - New: How to get your chocolate fix in 150 calories or less today:
Distance to centroid: 74.1326247768117 - New: How to get your chocolate fix in 150 calories or less today:
Distance to centroid: 74.1326247768117 - New: How to get your chocolate fix in 150 calories or less today:
Distance to centroid: 74.1326247768117 - New: How to get your chocolate fix in 150 calories or less today:
Distance to centroid: 74.438683093683 - New: 10 little ways to help your friends feel happier
Cluster 8:
Distance to centroid: 43.31594035403489 - New: RT @eatsmartbd: A11 Proceed w/ caution. U can't believe everything u read or hear in the news - diet tips are esp popular even among charlatans! #healthtalk
Distance to centroid: 45.14077786435311 - New: RT @hollyejacobs: @EverydayHealth A5: Alternative treatments to #cancer are GREAT! I did acupuncture, guided meditation and restorative yoga. #HealthTalk
Distance to centroid: 46.477958810256716 - New: Yikes! RT @cspi: A5 Most unhealthy dish we found is Bistro Shrimp Pasta from @Cheesecake Factory: 3,120 cals, 89 grams sat fat #healthtalk
Distance to centroid: 46.89068641357695 - New: RT @PlantDietitian: A6: Creamy sauces &amp; desserts can always be involved! Life is too short not to indulge! Use whole food sweeteners &amp; plant milks. #HealthTalk
Distance to centroid: 47.149013365679224 - New: RT @CSPI: A3 New guidelines from @USDA will strengthen nutrition/physical activity in schools, including limiting unhealthy food marketing.…
Distance to centroid: 47.15197206528964 - New: RT @SSDdotTV: A2: Eating together as a family provides a constant meeting point for the family. No matter how busy, you all come together #HealthTalk
Distance to centroid: 47.15594906083209 - New: RT @CertifiedFitGk: @EverydayHealth A5: Working out is how I deal with stress. It helps me focus and clear my mind. lite lunch cardio right now #HealthTalk
Distance to centroid: 47.21062719213732 - New: RT @eatsmartbd: A6 #Beans are low-cost + so easy to prepare. Put them in stews, rice, or even on your salad. #healthtalk
Distance to centroid: 47.61122334493387 - New: RT @PuritanUSA: A1 Grapefruit. Peel or chop up the night before so you can grab it and go! #healthtalk @EverydayHealth
Distance to centroid: 47.63616668465082 - New: RT @CSPI: All chain restaurants with 20+ locations will be required to list calories on menus &amp; menu boards according to those rules. #healthtalk
Distance to centroid: 47.70044197294279 - New: .@CSPI unveiled this year's unhealthiest 'winners' &amp; they're here to discuss the findings and tips for healthy decision making #HealthTalk
Distance to centroid: 48.038467737737 - New: RT @RMichlerMD: A10: Better and less invasive treatments for those who have #HeartDisease, incld #StemCells. #1 focus needs to be on prevention! #healthtalk
Distance to centroid: 48.09715450846214 - New: RT @johnlapuma: A5 Foods higher in arginine,; plus, studies of walnuts show arterial dilation after a fatty meal #healthtalk #menshealth
Distance to centroid: 48.21230366974377 - New: RT @RachelBegunRD: ask reliable source, like doctor or #dietitian. supps not regulated, so can be tricky to find good ones. @JeffManseau #healthtalk
Distance to centroid: 48.235763723848514 - New: RT @RachelBegunRD: A3: making #hearthealthy eating easier is impt. #RDtip: incorporate fruits/veggies into fave recipes. Don't have to eat plain! #healthtalk
Distance to centroid: 48.288351215186786 - New: RT @RachelBegunRD: A5: volunteer for a cause you love. Nothing better than helping others. Puts life into perspective. #healthtalk
Distance to centroid: 48.38300749945028 - New: RT @EHendrix1980: @EverydayHealth A10 "Happiness lies, first of all, in health." --George William Curtis #healthtalk
Distance to centroid: 48.603381503039216 - New: thx for the great questions/comments today. lets have another #AskSanjay chat soon. and as always, stay connected w/ me here: @DrSanjayGupta
Distance to centroid: 48.63131197364365 - New: Brain teaser! Who is @CNN's favorite neurosurgeon? Hint: he's joining us for a live chat at 2:30 ET
Distance to centroid: 48.63131197364365 - New: Brain teaser! Who is @CNN's favorite neurosurgeon? Hint: he's joining us for a live chat at 2:30 ET
Cluster 25:
Distance to centroid: 46.12829204085513 - New: RT @CDCgov: CDC #Ebola experts have advised @EmoryUniversity Hospital there is no public health concern w/ release of these patients.
Distance to centroid: 46.50370519604185 - New: .@elizabethrydan Family released his name, not the hospital or @CDCgov. HIPPA prevents health care workers from doing so #EbolaQandA
Distance to centroid: 48.69982059537866 - New: Dozens of veterans have died while on a secret VA hospital wait list a @DrewGriffinCNN investigation finds
Distance to centroid: 49.36211835042651 - New: E-cigs would be banned in public places under #California bill
Distance to centroid: 50.10438239420886 - New: "My child is worth respecting, loving, and cherishing" #AutismAwareness
Distance to centroid: 52.18393542259452 - New: Patients who undergo knee replacement surgery may be at higher risk of gaining weight within five years:
Distance to centroid: 52.18393542259452 - New: Patients who undergo knee replacement surgery may be at higher risk of gaining weight within five years:
Distance to centroid: 53.69311201493695 - New: Digital dentures? New technology means they'll fit precisely
Distance to centroid: 54.132134296286424 - New: Problems at home after surgery? Go back to same hospital, study says
Distance to centroid: 54.18396032381481 - New: U.S. #Ebola patient Nancy Writebol was released from hospital on Tues., source close to family tells @CNN
Distance to centroid: 54.49273743148104 - New: Health Hero of the Day! Hospital staff sews up kid's favorite stuffed animal during surgery
Distance to centroid: 54.957537300087026 - New: Elizabeth was estatic to be pregnant. Then her #cancer came back. Did she risk her own life? Or her baby's?
Distance to centroid: 55.22586406523866 - New: Study calls heart imaging into question for mild chest pain
Distance to centroid: 55.232082472284965 - New: Amid claims of a secret waiting list, Phoenix VA officials have put on leave
Distance to centroid: 55.478827663327685 - New: #Health program offers free diapers to #pregnant #smokers who kick habit
Distance to centroid: 55.76874468098322 - New: Weight-loss drugs seek acceptance from patients and physicians
Distance to centroid: 56.46303646263844 - New: #Obamacare rules differ for kids in the #foster care system
Distance to centroid: 57.09163575366095 - New: Hospital 'death test' estimates a senior's chance of dying within 30 days
Distance to centroid: 57.333316786767895 - New: America's emergency care system gets a big 'ol D+ for 2013. Do you agree?
Distance to centroid: 57.624599283205384 - New: RT @KaiserFamFound: Use our calculator to estimate health insurance subsidies and premiums in #Obamacare marketplace
Cluster 21:
Distance to centroid: 83.6341981624953 - New: Babies who eat finger foods have a healthier weight later on:
Distance to centroid: 88.97660471908699 - New: RT @ClevelandClinic: 5 foods to eat during the winter
Distance to centroid: 89.39653572330928 - New: 9 deliciously healthy reasons to eat dark chocolate:
Distance to centroid: 89.39653572330928 - New: 9 deliciously healthy reasons to eat dark chocolate:
Distance to centroid: 89.39653572330928 - New: 9 deliciously healthy reasons to eat dark chocolate:
Distance to centroid: 89.39653572330928 - New: 9 deliciously healthy reasons to eat dark chocolate:
Distance to centroid: 89.39653572330928 - New: 9 deliciously healthy reasons to eat dark chocolate:
Distance to centroid: 89.39653572330928 - New: 9 deliciously healthy reasons to eat dark chocolate:
Distance to centroid: 90.6105350143917 - New: Eat these foods for a longer life:
Distance to centroid: 90.6105350143917 - New: Eat these foods for a longer life:
Distance to centroid: 91.05187698011834 - New: The worst foods for ADHD:
Distance to centroid: 91.05187698011834 - New: The worst foods for ADHD:
Distance to centroid: 93.02910054488993 - New: 14 surprising foods for brighter smiles
Distance to centroid: 93.25983142401363 - New: Best and worst foods to eat when you’re #sick
Distance to centroid: 93.64769406907544 - New: 7 reasons to eat eggs for breakfast tomorrow morning:
Distance to centroid: 93.76441301175723 - New: 8 healthy foods for midnight snacking
Distance to centroid: 95.74869939923313 - New: Life enhancing reasons to eat fish:
Distance to centroid: 95.74869939923313 - New: Life enhancing reasons to eat fish:
Distance to centroid: 97.40873605251004 - New: 12 good for your boobs foods!
Distance to centroid: 97.40873605251004 - New: 12 good for your boobs foods!
Cluster 4:
Distance to centroid: 66.44745523440648 - New: VIDEO: Dr Radha's guide to a healthy diet
Distance to centroid: 67.13170095653456 - New: Video game addict dies after 19-hour gaming session
Distance to centroid: 67.3865934550916 - New: VIDEO: Videos of 1,500 beating human hearts
Distance to centroid: 68.15139285198723 - New: VIDEO: NHS: Labour and Tory key policies
Distance to centroid: 68.24384481302022 - New: VIDEO: Finger on the pulse of bionic research
Distance to centroid: 68.70638628183875 - New: VIDEO: Labour calls for NHS investment
Distance to centroid: 69.38807184914033 - New: VIDEO: The man who helped save 50 million lives
Distance to centroid: 69.54880823348667 - New: VIDEO: Brazil releases 'good' mosquitoes
Distance to centroid: 70.12435015589828 - New: VIDEO: Robotic suit helps patients to walk
Distance to centroid: 70.53391260643055 - New: VIDEO: Hi-tech headset to guide blind people
Distance to centroid: 71.10047979676749 - New: VIDEO: PM and Miliband trade health statistics
Distance to centroid: 71.2381840374247 - New: VIDEO: Football stadium disabled access tackled
Distance to centroid: 71.6135342717521 - New: VIDEO: Young carer Elle describes challenges
Distance to centroid: 71.68579775480053 - New: VIDEO: Clashes on English and Welsh NHS
Distance to centroid: 71.92957917072474 - New: VIDEO: Road separates living from dying
Distance to centroid: 71.95086168947508 - New: VIDEO: How trials helped patients in 2014
Distance to centroid: 72.49377392637294 - New: VIDEO: Will minimum wage rise make carers poorer?
Distance to centroid: 72.52381402088827 - New: VIDEO: PM challenged on girl's hospital letter
Distance to centroid: 73.34108461032494 - New: Tablet video game combats lazy eye
Distance to centroid: 73.41524076233449 - New: VIDEO: Rare glimpse inside Broadmoor
Cluster 9:
Distance to centroid: 68.94898179608663 - New: Hoping to Ease Shortage, FDA Fast-Tracks Generic Form of #CancerDrug
Distance to centroid: 69.6620623769505 - New: What happens when NHS patients are referred to private hospitals?
Distance to centroid: 71.65055936305468 - New: VIDEO: NHS to pay for Ashya King's treatment
Distance to centroid: 74.83146276292248 - New: Labour to set out plan to 'save' NHS
Distance to centroid: 75.18785184499917 - New: NHS should welcome 'citizen whistleblowers'
Distance to centroid: 76.24606718942762 - New: VIDEO: NHS had 'years of real financial squeeze'
Distance to centroid: 76.76429532558049 - New: Face transplant survivor marries burn victim
Distance to centroid: 76.87780268776902 - New: NHS 'at breaking point', medics say
Distance to centroid: 76.97946165336484 - New: Asbestos NHS costs decision due
Distance to centroid: 77.6236549116761 - New: Unison votes to accept NHS pay deal
Distance to centroid: 77.66280330891415 - New: Failed fat-ban 'will fuel NHS debt'
Distance to centroid: 77.96319964664352 - New: VIDEO: NHS 'U-turn' over drug trial money
Distance to centroid: 78.28417859878296 - New: Labour peer backs private role in NHS
Distance to centroid: 78.42841319358708 - New: Fears raised 'free NHS' will end
Distance to centroid: 78.56537284849401 - New: Planned NHS cash changes spark anger
Distance to centroid: 78.5998676795251 - New: AUDIO: Gay man had shocks on NHS as 'cure'
Distance to centroid: 78.82489157970248 - New: VIDEO: NHS agency nurses spending increase
Distance to centroid: 79.1399894995402 - New: The very public NHS privatisation debate
Distance to centroid: 79.3329526937753 - New: VIDEO: Can technology plug NHS funding gap?
Distance to centroid: 79.59025075770441 - New: VIDEO: MP's bill to 'put right NHS mistakes'
Cluster 16:
Distance to centroid: 103.70850832118438 - New: Everyday Health Daily Digest is out!
Distance to centroid: 103.70850832118438 - New: Everyday Health Daily Digest is out!
Distance to centroid: 103.70850832118438 - New: Everyday Health Daily Digest is out!
Distance to centroid: 103.70850832118438 - New: Everyday Health Daily Digest is out!
Distance to centroid: 103.70850832118438 - New: Everyday Health Daily Digest is out!
Distance to centroid: 103.70850832118438 - New: Everyday Health Daily Digest is out!
Distance to centroid: 103.70850832118438 - New: Everyday Health Daily Digest is out!
Distance to centroid: 103.70850832118438 - New: Everyday Health Daily Digest is out!
Distance to centroid: 103.70850832118438 - New: Everyday Health Daily Digest is out!
Distance to centroid: 103.70850832118438 - New: Everyday Health Daily Digest is out!
Distance to centroid: 103.70850832118438 - New: Everyday Health Daily Digest is out!
Distance to centroid: 103.70850832118438 - New: Everyday Health Daily Digest is out!
Distance to centroid: 103.70850832118438 - New: Everyday Health Daily Digest is out!
Distance to centroid: 103.70850832118438 - New: Everyday Health Daily Digest is out!
Distance to centroid: 103.70850832118438 - New: Everyday Health Daily Digest is out!
Distance to centroid: 103.70850832118438 - New: Everyday Health Daily Digest is out!
Distance to centroid: 103.70850832118438 - New: Everyday Health Daily Digest is out!
Distance to centroid: 103.70850832118438 - New: Everyday Health Daily Digest is out!
Distance to centroid: 103.70850832118438 - New: Everyday Health Daily Digest is out!
Distance to centroid: 103.70850832118438 - New: Everyday Health Daily Digest is out!
