Cluster 5:
Distance to centroid: 6.375566886262405 - New: MT @WHO: After tobacco control, maintaining healthy body weight, reg physical activity is the second most important way to prevent #cancer
Distance to centroid: 6.389723140112726 - New: .@RoscoeTheHorse Not really. But common sense says to avoid anyone who's sick. Virus spreads only when there are symptoms! #EbolaQandA
Distance to centroid: 6.396386071138883 - New: RT @CEP_America: It’s like Uber, for house calls! @CNNHealth shares how some #apps are helping patients avoid long waits in the #ED:
Distance to centroid: 6.4281490970712 - New: Today's #getfit tip: Netflix, Hulu &amp; many #fitness websites offer free streaming workouts you can do from home. Check 'em out!
Distance to centroid: 6.446773014456212 - New: How does #Ebola spread? What are the symptoms? Why was someone infected let on a plane? Answers to these Qs &amp; more
Distance to centroid: 6.457572959837449 - New: More than 1 in 3 U.S. adults have prediabetes, and the numbers are rising. Learn how to eat to lower your risk:
Distance to centroid: 6.460867437430896 - New: There's still a lot of flu season left. Here's how to stay safe from the current flu epidemic:
Distance to centroid: 6.46392481245066 - New: For #WorldAIDSDay here's what happens when one half of a couple is HIV+ &amp; the other isn't &amp; they want to have a baby.
Distance to centroid: 6.464232163354283 - New: Q4: Many experts say kids are TOO busy w/ sports, etc. these days. How do you encourage free play? #FitFamilies
Distance to centroid: 6.467926117947585 - New: RT @drsanjaygupta: letting @diananyad get some rest, and then I sit down with her for 1st post swim intvu. anything you want me to ask? #ex…
Distance to centroid: 6.468041042138497 - New: RT @lizlandau: So much #abortion debate, but we rarely hear from women who have had abortions. Share your experience for #cnn
Distance to centroid: 6.468208363662782 - New: Craving chocolate? Take a walk! Data finds that people who take walks snack less under stress. More tips:
Distance to centroid: 6.48715331964226 - New: On this #911anniversay be sure to read about how some first responders with rare cancer aren't getting insurance help
Distance to centroid: 6.488440283525013 - New: One of 3 Americans use alternative medicine? Are you among them? And other findings from the @NCHStats @jechristensen
Distance to centroid: 6.491533308114463 - New: RT @DavidKirsch: @cnnhealth they know that movement is good for their body - heart, brain and muscles.  and they like doing it too! #fitfam…
Distance to centroid: 6.495941807247513 - New: More are sick &amp; federal investigators may know what's causing it with some tainted apples
Distance to centroid: 6.501285082971404 - New: RT @DrFriedenCDC: Better health for ALL Americans means focusing our efforts where most needed. Looking forward to #NPHWchat
Distance to centroid: 6.504303218666224 - New: RT @DrFriedenCDC: .@cnnhealth We’ve seen severe #flu illness in young &amp; middle-aged adults. Even healthy ppl can get very sick. Not too lat…
Distance to centroid: 6.506377139679876 - New: RT @goodhealth: Lasting #weightloss may seem like an uphill battle, but it's possible. Here's what we know works --&gt;
Distance to centroid: 6.50828228787052 - New: .@Naz315 I love being a neurosurgeon, and would definitely recommend it. Just told my own daughter the same thing last week! -- SG
Cluster 8:
Distance to centroid: 6.466845500582015 - New: Sitting less may prevent #diabetes risk factors, new study says. Are you able to move around at work?
Distance to centroid: 6.494186468237573 - New: i’m seeing several q’s about fish oil helping after a brain injury. yes, it can help heal the brain. -SG
Distance to centroid: 6.5055203116743545 - New: RT @NPHW: Q3: Public health starts early in life. How can we ensure our children grow up healthier than we did? #NPHWchat
Distance to centroid: 6.507114519718071 - New: It may be cold out but the sun can still cause damage -- protect your skin with these tips!
Distance to centroid: 6.528686881653672 - New: Are drugs like #Tamiflu worth it? Learn how much they reduce #flu symptoms by:
Distance to centroid: 6.53531484872907 - New: Smoking pot for a long time can change your brain, new study also shows a lower IQ with long term users
Distance to centroid: 6.5446173835646 - New: Go orange! How the nutrient that gives carrots their orange color might protect against type 2 #diabetes:
Distance to centroid: 6.5446173835646 - New: Go orange! How the nutrient that gives carrots their orange color might protect against type 2 #diabetes:
Distance to centroid: 6.545024279712184 - New: RT @EinsteinMed: A5: Diabetes can b present 4 many years w/out symptoms but still may be causing damage to eyes, kidneys &amp; nerves. –DrC #healthtalk
Distance to centroid: 6.547543463732666 - New: RT @drsanjaygupta: exposing kids to #peanuts early in life may actually keep them from developing an #allergy --
Distance to centroid: 6.5486425893672395 - New: RT @AllergyReliefNY: .@cnnhealth also some studies suggest early exposure to 2 or pets may reduce future allergies &amp; asthma #CNNAllergies
Distance to centroid: 6.550908467566525 - New: RT @danmaurer: Just call me Methuselah..."@cnnhealth: New research says being overweight (not obese) may lead to a longer life.
Distance to centroid: 6.5584913435651035 - New: Yoga helps not only keep you fit, but it can help your heart and mind too, a new study finds:
Distance to centroid: 6.561094731554597 - New: Were you or your child supposed to start a clinical trial that may be delayed b/c of the #shutdown? Let us know
Distance to centroid: 6.5627474260340986 - New: RT @NPHW: Q5: Today's #NPHW theme is prevention. How can your community better prevent disease and illness? #NPHWchat
Distance to centroid: 6.574334357394814 - New: nobel prize winner eric kandel says our genes get altered during learning process, impacts memory -SG
Distance to centroid: 6.580743002055818 - New: 5 things cause 2/3 of U.S. deaths. Here's how we can prevent some of those fatalities, says @DrFriedenCDC
Distance to centroid: 6.587181586624369 - New: RT @EinsteinMed: A1:Metformin is most commonly used diabetes med. It lowers blood sugar by helping the body use its own insulin more effectively #healthtalk
Distance to centroid: 6.588552974361045 - New: Many states are lacking effective strategies to curb prescription drug abuse, a new report finds #health
Distance to centroid: 6.588899002730372 - New: New research says eating 7 servings of fruit &amp; veggies daily can reduce your risk of death by 42%!
Cluster 2:
Distance to centroid: 6.685287808224001 - New: RT @loseit: A8: Fun grocery store game: Get a fruit or vegetable of every different color! Use to internet to learn how to cook them! #healthtalk
Distance to centroid: 6.70300259143558 - New: "I remember thinking cancer wouldn't affect me too much. I was wrong." MUST read story from @TriHardJamil
Distance to centroid: 6.703699547965126 - New: RT @CertifiedFitGk: @EverydayHealth A5: Working out is how I deal with stress. It helps me focus and clear my mind. lite lunch cardio right now #HealthTalk
Distance to centroid: 6.705168978081882 - New: RT @gatortracy: #CNNParents find other parents for support. We understand each other. And remember to take care of yourself. CNN- thank you…
Distance to centroid: 6.710743613731056 - New: RT @NPHW: #NPHWchat has been an amazing conversation! Let's keep public health top of mind all week &amp; beyond with the hashtag #NPHW. KEEP I…
Distance to centroid: 6.713715690949997 - New: RT @eatsmartbd: Yes! Self interest is not being selfish! RT @SSDdotTV: A9: healthier you are, the longer you'll be around for your loved ones. #HealthTalk
Distance to centroid: 6.714683346650982 - New: RT @eatsmartbd: A11 Proceed w/ caution. U can't believe everything u read or hear in the news - diet tips are esp popular even among charlatans! #healthtalk
Distance to centroid: 6.714868472631894 - New: RT @CSPI: A3 The portion is huge - over a pound of chicken! 3/4 pounds mashed potatoes, full of butter &amp; cream. It's unnecessary! #healthtalk
Distance to centroid: 6.715109143025148 - New: @jesterjules How unAmerican... oh no wait, that's apple pie. Then we suggest checking out our other #getfit tips every day this month!
Distance to centroid: 6.718784883215678 - New: Q2: #Heart disease affects many people but risk factors can be improved through lifestyle changes. Can you guess what they are? #HealthTalk
Distance to centroid: 6.722151095180002 - New: .@JillianMichaels' NEW iPad app has a calorie tracker, workout plans &amp; brand-new exercise videos! Download FREE now:
Distance to centroid: 6.726245221770977 - New: 44 million people are living w/ #dementia. But there are things you can do RIGHT NOW to reduce your risk:
Distance to centroid: 6.727021585094389 - New: . @drsanjaygupta: "I now know the look of eyes that have not seen food for too long. They can look at nothing else"
Distance to centroid: 6.7325470027012155 - New: Each spring do you recommend people stick with the same allergy med they took before, or try switching? @AllergyReliefNY #CNNAllergies
Distance to centroid: 6.734027345512642 - New: RT @mellijellybean: @cnnhealth Sadly, yes. That's a REALLY high BMI &amp; I don't think those kids could participate in the activities planned …
Distance to centroid: 6.737679563952152 - New: #Flu picking up steam across the U.S. Do you have any questions for our doctors? Send 'em with #fluQs
Distance to centroid: 6.739350498274771 - New: Dear @upwave, Thanks for answering the question we've always wanted to ask: How much #sex is considered #exercise?
Distance to centroid: 6.740888792646589 - New: RT @CSPI: .@HopeJahren Americans consume over one third of calories outside the home, so it's really not a matter of "once in a while." #healthtalk
Distance to centroid: 6.744345330174856 - New: . @BrandySebastian Welcome! Do you have any rules about how long he can stay on the computer? #FitFamilies
Distance to centroid: 6.745455244559408 - New: RT @EinsteinMed: Its not known-possible causes r exposure to environ. toxins or viruses RT @JoSakimura Q1 Why see rising rates of #type1 in kids? #healthtalk
Cluster 9:
Distance to centroid: 6.636727014167749 - New: RT @cnnbrk: Three scientists share Nobel Prize in Medicine for work on cells that form a positioning system in brain.
Distance to centroid: 6.644835134952867 - New: 20 #healthcare workers in Florida were told to stay home after potential #MERS exposure
Distance to centroid: 6.6470018800664175 - New: .@ErdMutter92 @DrFriedenCDC said as long as outbreak continues in Africa, it could happen again. Avoid people who are sick #EbolaQandA
Distance to centroid: 6.653628720722235 - New: .@jensan1332 Health care workers are most at risk b/c they come in frequent contact with patients' bodily fluids #EbolaQandA
Distance to centroid: 6.6737062074558064 - New: Did you know someone dies every 19 mins from a drug overdose? @sanjayguptaCNN reports in 'Deadly Dose':
Distance to centroid: 6.683353503096867 - New: RT @goodhealth: Stop that #cold NOW with these sniffle season strategies, from sleeping in to using vodka in place of hand sanitizer....
Distance to centroid: 6.694977098979943 - New: RT @TheWeiserMooney: @cnnhealth #healthcare was a major factor in my #vote! It's a major part of US spending &amp; should be a right of all ...
Distance to centroid: 6.709715189945621 - New: Cost of friends &amp; relatives caring for elderly in U.S. = $522 billion a year, @RANDCorporation says. Are you one of these unseen workers?
Distance to centroid: 6.71934936858946 - New: RT @CDC_Cancer: If HPV vaccination rates stay low, tens of thousands of people will get #cancer needlessly in the years to come
Distance to centroid: 6.726227451558586 - New: .@SpreadSheetApp Animals can get it -- monkeys, dogs, bats, pigs. Scientists believe a bat started outbreak in West Africa #EbolaQandA
Distance to centroid: 6.727498199512849 - New: Children exposed to this drug while in the womb face a higher risk of developing behavior problems:
Distance to centroid: 6.727498199512849 - New: Children exposed to this drug while in the womb face a higher risk of developing behavior problems:
Distance to centroid: 6.731539195592871 - New: RT @DanielleCNN Did u know ur cell phone gives off more radiation when u're in an elevator? @SanjayGuptaCNN reports today
Distance to centroid: 6.736705314102611 - New: RT @KelseySeybold: OB/GYN specialist Dr. Deepali Patni featured in @cnnhealth - Menopause: Questions women are thinking, but not asking. ht…
Distance to centroid: 6.73880640547371 - New: When the choice isn’t yours: Families of pediatric cancer patients live in fear amidst #measles outbreak
Distance to centroid: 6.739659876754558 - New: RT @CSPI: A3 New guidelines from @USDA will strengthen nutrition/physical activity in schools, including limiting unhealthy food marketing.…
Distance to centroid: 6.749709430012523 - New: .@josemp0944 You know your history! Reston Ebola virus has come to U.S. several times in monkeys:
Distance to centroid: 6.750075702079859 - New: RT @drsanjaygupta: in search of a healthier america. health care insurance alone won't get us there. the moral hazard.
Distance to centroid: 6.750120237223573 - New: RT @RachelBegunRD: A1 Fact: Heart disease is THE leading cause of death for both men AND women. It is responsible for 1 in 4 deaths in America #healthtalk
Distance to centroid: 6.751141185091906 - New: Pain in the pumps? Why some women choose couture over comfort
Cluster 13:
Distance to centroid: 6.534481038539639 - New: RT @SueScheff: #CNNParents HUGE DENIAL, I deal w it weekly. Sadly I will have the same parent call 2 years later, teen is now 18, &amp; unless …
Distance to centroid: 6.578613883053774 - New: RT @drsanjaygupta: this wasn't an easy article to write, but it's honest. hope it helps patients who have been denied therapy.
Distance to centroid: 6.593202355357442 - New: Any advice for @culberd? I have a 15 yr old boy who is bipolar. He won't stay on meds. My family wants me to send him away #CNNParents
Distance to centroid: 6.602169646458773 - New: Is your child getting enough sleep? @LivingWellDoc shares tips that will make for a happier baby in the a.m.
Distance to centroid: 6.617022900723487 - New: Why are we so afraid #Ebola will kill us all? Because we've seen it happen time and again on the big screen:
Distance to centroid: 6.635921481848674 - New: Happy World #Health Day! @BrettHoebel is here to help you prevent high blood pressure
Distance to centroid: 6.639337683450869 - New: Bullying is an "international public health problem," experts say. This boy has asked Santa to fix it
Distance to centroid: 6.656260915713985 - New: Families speak out against doctor who said ‘death from cancer is the best’
Distance to centroid: 6.6572900180811345 - New: This isn't your mama's gym class! Phys ed teachers are using everything from archery to Zumba to combat #obesity
Distance to centroid: 6.658404493518216 - New: "Vaccines prevent 6 million deaths every year and fundamentally changed modern medicine" Opinion @drsanjaygupta
Distance to centroid: 6.659924017864562 - New: RT @solidfreshdope: It would be nice to see how Vivian is fairing after the move to CO. and the use of medicinal marijuana. Sequel? @drsanj…
Distance to centroid: 6.663032852552314 - New: RT @jdwilson2: "Life is never going to be stress free" Dr. Robert Kushner says. The key is learning positive coping skills #YWM2013
Distance to centroid: 6.664182880928014 - New: Doctors believe #enterovirus68 is making kids sick. But nailing the culprit won't be easy. Here's why:
Distance to centroid: 6.664760873978441 - New: RT @Savingdaniel13: @FedFamSC #CNNParents I thought of my son first before me and that is what caused the "Wall" to replace my emotions. Th…
Distance to centroid: 6.665448576404004 - New: RT @Savingdaniel13: #CNNParents Best advice for parents is to never give up hope. What keeps you from reaching out to others?
Distance to centroid: 6.668576078328965 - New: An Ebola fighter who saved her family using baggies is coming to the U.S. &amp; needs your help
Distance to centroid: 6.674941673666105 - New: Should the mentally ill get care or jail time? An autistic man is in prison for thinking about a crime @drsanjaygupta
Distance to centroid: 6.6788655108438295 - New: It looks like #flu season is kicking off. Here are 5 ways you can combat germs in your home
Distance to centroid: 6.682924400353036 - New: If your kid is obese at age 5, they may be forever. UNLESS you step in! Join us at 1 pm Fri for a chat #FitFamilies
Distance to centroid: 6.690025828001521 - New: RT @AllergyReliefNY: .@cnnhealth what's good for you is bad for you &amp; vice versa. Too clean first 1-2 yr of life is not beneficial for immu…
Cluster 11:
Distance to centroid: 6.414215153475087 - New: 1 in 8 U.S. babies is born pre-term. @LIFE takes a look at how hospitals saved these tiny humans 75 yrs ago
Distance to centroid: 6.4177710842219415 - New: #MERS update: @WHO says it's serious, but not a global emergency. Learn why they're holding back:
Distance to centroid: 6.429800313797011 - New: Boston declares a health emergency as the flu outbreak hits 41 states. Find out how many people are sick so far:
Distance to centroid: 6.439240048876535 - New: RT @elizcohencnn: My heart goes out to victims of the CA superbug. Here's how to avoid hospital acquired infections. Tell me ur story.
Distance to centroid: 6.453072124156522 - New: Moms should let their babies cry themselves back to sleep after waking up during the night, finds a new study:
Distance to centroid: 6.453072124156522 - New: Moms should let their babies cry themselves back to sleep after waking up during the night, finds a new study:
Distance to centroid: 6.471616044229429 - New: RT @CNN: Study: 1 in 25 patients gets an infection while at the hospital. Here's how to avoid getting sick:
Distance to centroid: 6.47404577096948 - New: A fight is brewing over #livertransplant donations. Would proposed changes turn the Midwest into an 'organ farm'?
Distance to centroid: 6.481923733792096 - New: RT @LeislStoufer: #CNNParents my son suffers from Bi-Polar Disorder. We have to FIGHT for treatment.  If he had any other illness we would …
Distance to centroid: 6.490416155571881 - New: .@kristenejonesrn Not before symptoms. But survivors are warned that virus can live in semen, breast milk after recovery  #EbolaQandA
Distance to centroid: 6.494736177765432 - New: Jerry #Sandusky convicted in sex abuse trial. How childhood sexual abuse can have long-term effects on victims:
Distance to centroid: 6.495030565738052 - New: .@elizabethrydan Family released his name, not the hospital or @CDCgov. HIPPA prevents health care workers from doing so #EbolaQandA
Distance to centroid: 6.498801580776897 - New: John Farah is in his 70s, but he’s headed back for a 19th #BostonMarathon. See why the bombings won’t stop him:
Distance to centroid: 6.502011660364693 - New: RT @CDCgov: CDC #Ebola experts have advised @EmoryUniversity Hospital there is no public health concern w/ release of these patients.
Distance to centroid: 6.508092966709038 - New: RT @JoshLevs: Read, see, &amp; hear recovered U.S. #Ebola patient describe how he feels as discharged from hospital:
Distance to centroid: 6.511202611689121 - New: RT @lizlandau: A 13-year-old recently died of #food #allergy in California; sad reminder that allergies can be deadly
Distance to centroid: 6.512184657198728 - New: Woman who thought she was suffering from a broken heart actually had brain infection
Distance to centroid: 6.527167138986209 - New: Pls ignore that last tweet -- wrong headline alert! Government reverses plan to cut Medicare Advantage rate
Distance to centroid: 6.5355261884476175 - New: RT @elizcohencnn: Great story from @debgcnn - woman whose intuition led to early cancer detection - twice! Amazing empowered patient.
Distance to centroid: 6.545499316575276 - New: Two crucial hearings today in fight over Jahi McMath, who was declared brain dead by docs after tonsillectomy
Cluster 10:
Distance to centroid: 6.506145120556211 - New: RT @kellywallacetv: What's the advice when your child wants to stop a physical activity &amp; you know it's good for them to keep doing it? #fi…
Distance to centroid: 6.641748698445821 - New: RT @dietitiancassie: Still drinking diet soda? You might want to stop. I'm quoted throughout this article from @CNNHealth explaining WHY.. …
Distance to centroid: 6.654458970407511 - New: Hey @NACCHOalerts leaders: Show us how your city inspires healthy habits, and you could be on @CNN!
Distance to centroid: 6.654458970407511 - New: Hey @NACCHOalerts leaders: Show us how your city inspires healthy habits, and you could be on @CNN!
Distance to centroid: 6.6629614902196 - New: You've got 1 more day to sign up for #Obamacare if you want coverage to start March 1. Everything you need to know:
Distance to centroid: 6.664610120190609 - New: @PookieHuny @CNN It won't be streaming online but we'll let you know when it's scheduled to air again on TV!
Distance to centroid: 6.6688624775259635 - New: RT @SSDdotTV: If you cant work due to #psoriasis, consider disability benefits for financial help. See how to apply
Distance to centroid: 6.67231718420944 - New: Do you know someone who seems cavity-proof? Here are 5 ways their genes could be helping them:
Distance to centroid: 6.673577150249378 - New: Today's #getfit tip from reader @LindseyTaylorx3: Every time you workout, put a dollar in a jar. When you have $100, spoil yourself!
Distance to centroid: 6.6831675191536055 - New: RT @NCADA_STL: @cnnhealth Thanks for the article "What you need to know about synthetic #drugs". Great info for #parents &amp; #kids.
Distance to centroid: 6.686426523207543 - New: So you don't look like a supermodel in yoga pants. Here's how to get over exercise shyness and work it at the gym:
Distance to centroid: 6.686426523207543 - New: So you don't look like a supermodel in yoga pants. Here's how to get over exercise shyness and work it at the gym:
Distance to centroid: 6.687771530598687 - New: Did you pour your kids a big bowl of cereal this morning? It may have TOO MANY vitamins for their small bodies
Distance to centroid: 6.694900956898014 - New: When you're sick, the last thing you want to do is get out of bed to see a doctor. These apps bring the doc to you!
Distance to centroid: 6.696329413324657 - New: Has your son or daughter ever been bullied by their coach? It happens more than you may think
Distance to centroid: 6.7012406390100026 - New: Today's #getfit tip @OfficialJimRohn: "Take care of your body. It's the only place you have to live"
Distance to centroid: 6.704308828465672 - New: RT @jdwilson2: Big takeaway from lunch: Your relationships WILL change after #weightloss. HOW they change is only partly up to you #YWM2013
Distance to centroid: 6.709898573264006 - New: RT @JBraddockRD: A4: Realizing that I need to change into workout clothes before leaving the office to come home to make exercise happen easily. #healthtalk
Distance to centroid: 6.712548744470721 - New: What will #Obamacare mean for you &amp; your family? Join @CNNMoney’s live #FBchat on 9/20 at 2:30P ET to solve the mystery of #Healthcare.
Distance to centroid: 6.717357903200187 - New: Head lice don't take the summer off! How you can prevent and treat 'em
Cluster 7:
Distance to centroid: 7.017451113833808 - New: RT @cnnbrk: Texas health officials: 1st #Ebola patient diagnosed in U.S. developed symptoms after returning from W. Africa.
Distance to centroid: 7.027380671060429 - New: Donors and WHO responded too slowly to West Africa #Ebola outbreak, report says
Distance to centroid: 7.029694124038272 - New: .@WHO says #Ebola outbreak in West Africa is one of the "most challenging" they've ever faced
Distance to centroid: 7.0559332101295515 - New: WHO #Ebola response chief says virus still spreading due to lack of change in behaviors
Distance to centroid: 7.111887827750959 - New: High rates of child deaths from #Ebola, special care needed, WHO says
Distance to centroid: 7.11650324922398 - New: What's it like inside the Ebola hotzone? An American doctor who had Ebola is back in Africa
Distance to centroid: 7.134470804985749 - New: RT @cnnbrk: .@GatesFoundation pledges $50 million for emergency response to contain Ebola outbreak. Background:
Distance to centroid: 7.145111876668325 - New: Health care worker in New Jersey tests negative for #Ebola, state says
Distance to centroid: 7.155574654228713 - New: 4 more aid workers flown back to US for Ebola monitoring (pulled overnight)
Distance to centroid: 7.1603477752531814 - New: Guinea says number of Ebola patients more than doubles since February
Distance to centroid: 7.1808990071298195 - New: #Ebola virus sent to lower-tier lab likely not dangerous, says CDC
Distance to centroid: 7.210770582705036 - New: Human trial of experimental #Ebola vaccine to start next week. Would you volunteer?
Distance to centroid: 7.228947340023525 - New: Guinea schools reopen, but #Ebola fears still keep many home
Distance to centroid: 7.243696010945163 - New: Single new case can reignite #Ebola outbreak if vigilance lost, says MSF
Distance to centroid: 7.247221793569069 - New: Chief #Ebola doctor in Sierra Leone has the deadly virus, #health officials say
Distance to centroid: 7.260949972131172 - New: RT @drsanjaygupta: dispatch from guinea, west africa. #ebola didnt enter our world -- we entered its world.
Distance to centroid: 7.261682156297847 - New: #Ebola cases near 16,000, Seirra Leone to overtake Liberia soon with most cases: WHO
Distance to centroid: 7.272899473990606 - New: #Ebola virus still infectious for a week after death
Distance to centroid: 7.274093373767637 - New: Fear, hope mark life inside #Ebola center in Sierra Leone, doctor says
Distance to centroid: 7.275151881707965 - New: Death toll from Ebola outbreak nears 7,000 in West Africa, WHO reports
Cluster 12:
Distance to centroid: 6.6146313369431144 - New: Cynics have a higher dementia risk than optimists, a new study shows. Find out what else they are prone to get
Distance to centroid: 6.645086868066807 - New: Blood sugar is NOT what matters most for preventing heart disease in people with #diabetes, new study finds
Distance to centroid: 6.654522160957668 - New: Parents honor son who died from rare heart disease with annual hockey tournament
Distance to centroid: 6.65817395035558 - New: Salt Lake City woman diagnosed with rare disease that caused enlarged heart during #pregnancy
Distance to centroid: 6.679805799698897 - New: The treatment time for prostate cancer may be cut in half, thanks to a new study.
Distance to centroid: 6.7089620932415235 - New: MT @DanielleCNN: Using indoor tanning beds before age 35 ups your risk of skin cancer by 75%. Teens are top concern
Distance to centroid: 6.721936441005474 - New: Good &amp; bad: the decline in smoking rates could actually increase deaths from lung cancer
Distance to centroid: 6.739687264871042 - New: For women with early stage breast cancer, minimally invasive surgery may be better than mastectomy, says new study.
Distance to centroid: 6.747126344764193 - New: Vegetarians who eat fish could be greatly reducing their risk of colon cancer.
Distance to centroid: 6.763932710610974 - New: Exposure to air #pollution during #pregnancy may double #autism risk, study says
Distance to centroid: 6.769776602206184 - New: #Mammograms now in 3D, and they can increase invasive breast #cancer detection rates by as much as 40 percent.
Distance to centroid: 6.797514143681085 - New: Smoking still a large contributor to US cancer deaths, study says
Distance to centroid: 6.801143920033676 - New: How much you smoke could put you at risk from dying from bladder cancer, finds a new study:
Distance to centroid: 6.801143920033676 - New: How much you smoke could put you at risk from dying from bladder cancer, finds a new study:
Distance to centroid: 6.808047646829805 - New: Early research suggests that biologics reduce blood vessel damage &amp; protect against certain types of heart disease.
Distance to centroid: 6.808771027148979 - New: Long-term use of birth control pills linked to higher risk of brain tumors, study finds
Distance to centroid: 6.809741308881428 - New: Higher use of male IVF procedure not linked with increased birth rate, study says
Distance to centroid: 6.81484097890987 - New: #obesity during #pregnancy increases your risk of delivering a stillborn baby, a @AmerMedicalAssn study finds
Distance to centroid: 6.816606597765898 - New: Early intervention could erase signs of #autism in babies, a new study suggests
Distance to centroid: 6.825458138570622 - New: Most patients who undergo brain surgery for #epilepsy satisfied with choice, study suggests
Cluster 4:
Distance to centroid: 6.612848891870875 - New: RT @upwave: You won't believe how many days are lost working because of the common cold.
Distance to centroid: 6.661621944923446 - New: People who fall into the #Medicaid gap will turn to free clinics -- if they can still get funding
Distance to centroid: 6.679562027191838 - New: On the flu shot... RT @Angietweets12: @cnnhealth no way I'll let my body fight off any foreign invaders with the nutritious food I eat
Distance to centroid: 6.695842629001197 - New: Fish oil is the most common natural product taken in the US. And other findings from @NCHStats @jechristensen
Distance to centroid: 6.709545106552452 - New: RT @DrRalphRogers: The death of #RobinWilliams has everyone talking about #Depression. Exercise can have a huge impact on sufferers - take …
Distance to centroid: 6.730724917056628 - New: Today's #getfit tip @MensHealth: Working the night shift? Adjust your concept of mealtime &amp; eat the biggest meal when you get home
Distance to centroid: 6.730900652012125 - New: As if the havoc winter wreaks on our hair isn't bad enough... Mother Nature can also cause you pain
Distance to centroid: 6.731146174311242 - New: RT @ames_atkins: @missyluv007 Adults who have mental illness need to share their stories to encourage the youth to keep up with treatment #…
Distance to centroid: 6.734238915243653 - New: RT @Robinsbite: A7: And, beware the chip/bread/cracker basket. Here in Texas, chips can be the death of people when dining out! #healthtalk
Distance to centroid: 6.740166154897052 - New: .@tbonemexi15 @DrFriedenCDC says US is much better equipped to handle #Ebola patients, keep them isolated &amp; contain the virus #EbolaQandA
Distance to centroid: 6.7558020644032055 - New: RT @drsanjaygupta: meet the doctor and get a first look at the room where ebola patients will be treated in the US.
Distance to centroid: 6.756996850345889 - New: Here's what the U.S. will do to help people whose lives are on the "brink of collapse" due to #Ebola  @jechristensen
Distance to centroid: 6.7616944554866025 - New: RT @DrashmanCNN: @cnnhealth I learned that the fight 1) iis an every day struggle. In the home, in public, at school, even inside family  #…
Distance to centroid: 6.764674445665387 - New: MT @DrEarlTurner Q7 What can parents do to change the stigma around mental illness? #CNNparents &lt;Be open to seeking psychological treatment&gt;
Distance to centroid: 6.772357359396451 - New: RT @MomsDadsDocs: Are you avoiding the flu shot? Here are 5 common #flu shot myths &amp; the truth (via @cnnhealth) -
Distance to centroid: 6.772526238045622 - New: RT @KelseySeybold: Over the last 20 years, the # of parents sharing a bed with their infant has doubled. But is it safe?
Distance to centroid: 6.775268986687276 - New: RT @Laura_Perdue: @cnnhealth It is if you have the money. All the more reason to restore #SNAP funding to help those already at greater hea…
Distance to centroid: 6.775371089182983 - New: The conversation on legalizing #marijuana in the U.S. has moved from "if" to "when" some say. Do you agree?
Distance to centroid: 6.782524556015021 - New: Looks like somebody's got a case of the "Mondays." Here are 10 stories that will make you smile
Distance to centroid: 6.785409923114379 - New: Every gym has them! The 8 most annoying people at the gym, and how to deal with your frustrations:
Cluster 3:
Distance to centroid: 6.7513180179683525 - New: Could training your brain with games and apps help fight dementia? Researchers are looking for a link:
Distance to centroid: 6.799421440955148 - New: What's your commute like? Does it affect your mood? Email elizabeth.landau@turner.com and you could be part of a #CNN story!
Distance to centroid: 6.8138991138220195 - New: Rejection &amp; failure can hurt your body as much as a broken ankle can, here's some emotional first aid:
Distance to centroid: 6.816150543584285 - New: Chemical found in soda may be dangerous to your health @consumerreports says. No, it's not sugar (this time)
Distance to centroid: 6.824160839892658 - New: It's Monday and your eyes already hurt from staring at your computer screen! Learn how to avoid digital strain
Distance to centroid: 6.826798740487503 - New: Send @cnnireport your photos &amp; video from #Sandy, but please stay safe. Your iReports could be part of CNN's coverage
Distance to centroid: 6.831331286637599 - New: RT @CNN: Did you know crafting can protect against aging &amp; help with anxiety? This is your brain on knitting:
Distance to centroid: 6.839212956303331 - New: Ever been late to a mtg &amp; realize you can't find your car keys? Your brain has a good excuse:
Distance to centroid: 6.841541513069641 - New: Drinking beer can reduce your risk of heart disease. Here, tap into its other health benefits:
Distance to centroid: 6.841541513069641 - New: Drinking beer can reduce your risk of heart disease. Here, tap into its other health benefits:
Distance to centroid: 6.843141974008413 - New: RT @eatsmartbd: A4 U can even get your blood pressure checked regularly at your local pharmacy when you're buying stuff for fam. #healthtalk #hearthealth
Distance to centroid: 6.845047897919122 - New: Need another reason to quit smoking? Doing so can half your risk of oral health problems:
Distance to centroid: 6.845047897919122 - New: Need another reason to quit smoking? Doing so can half your risk of oral health problems:
Distance to centroid: 6.855286647398785 - New: Stress can affect everything from your sex drive to how much hair is on your head. 9 scary symptoms to beware of:
Distance to centroid: 6.85739562480206 - New: What is good for your heart, may lift your mood, will help you live longer and tastes delicious? Find out here:
Distance to centroid: 6.858653059239096 - New: Looking to sculpt your legs? @jillianmichaels demonstrates three exercises for you to tone your inner and outer thighs
Distance to centroid: 6.859358840639579 - New: Online access to your medical records may encourage you to go to your doctor more, study finds
Distance to centroid: 6.8602495337357885 - New: It's time to get your brain in shape for #Alzheimers &amp; #Brain Awareness Month! Workout those neurons...
Distance to centroid: 6.870251461464531 - New: Did you know #crafting can protect against aging &amp; help with #anxiety? This is your brain on #knitting
Distance to centroid: 6.870353172068238 - New: Go ahead, shout out the F-word! It's good for your health (plus more etiquette rules to break):
Cluster 6:
Distance to centroid: 6.567834707048538 - New: RT @CNNVideo: Deaf toddler's reaction to hearing his dad's voice for the first time will make your day. @drsanjaygupta reports:
Distance to centroid: 6.592523213247324 - New: Imagine living w/o a pulse. Scientists are engineering a replacement for the human heart -- one that doesn't beat
Distance to centroid: 6.592523213247324 - New: Imagine living w/o a pulse. Scientists are engineering a replacement for the human heart -- one that doesn't beat
Distance to centroid: 6.608158459259549 - New: RT @CNNMoney Soda sales are losing their fizzzzzz. (Could be good for the bottled water industry?)
Distance to centroid: 6.615892140165888 - New: RT @UNAIDS reports a gap of US$7.2 bn in 2011 to reach the global #HIV targets for low &amp; middle income countries for 2015
Distance to centroid: 6.6756058598432695 - New: Today's #getfit tip @DrewMichael1: Many mistake hunger for the brain's trigger for thirst. Replenish your body with water all day!
Distance to centroid: 6.687527055538388 - New: RT @DanielAdams86: Boston Police looking for missing autistic boy from E. Boston. Help find Jeffery. Red tshirt, sox sweatshirt &amp; hat, jean…
Distance to centroid: 6.688581659810126 - New: A new study finds that people living closest to the equator are at higher risk for allergies and asthma:
Distance to centroid: 6.69703200338241 - New: RT @drsanjaygupta: wow - i've been investigating #sugar for years. but these images even surprised me..
Distance to centroid: 6.701783299043337 - New: RT @EinsteinMed: A7: It has been used for over 40 years and is safe for most people with diabetes.-DrC #healthtalk
Distance to centroid: 6.7106937809014635 - New: RT @NPF: What works for one person with #psoriasis might not work for another. Keep trying until you find the right regimen for you #healthtalk
Distance to centroid: 6.712033565370813 - New: Has your kid ever choked on a hot dog or hard candy? Experts are calling for warning labels on these foods
Distance to centroid: 6.71999307553218 - New: Researchers call ovarian cancer a "public health crisis" and are looking for better ways to treat this killer of women:
Distance to centroid: 6.720003936143061 - New: Nasal #flu vaccines may be safe for kids with egg #allergies
Distance to centroid: 6.72766477421443 - New: RT @drsanjaygupta: 37 states have increased funding for mental health. Texas will spend 250 mill next 2 years. Will help address stigma #cn…
Distance to centroid: 6.730125253315295 - New: Doctors say early school start times are unhealthy for #kids. Do you agree?
Distance to centroid: 6.731299027068339 - New: "Record your voice for loved ones while you still can" @CDCgov launches 2nd anti-smoking campaign
Distance to centroid: 6.732682038809088 - New: A teenager left fighting for her life after smoking synthetic marijuana made a dramatic recovery.
Distance to centroid: 6.744725924030797 - New: RT @cortbloomer: @cnnhealth Biking can be dangerous, but it doesn't have to be. Let's look for solutions to safety issues. @BikeLeague is s…
Distance to centroid: 6.750540012410007 - New: Looking for a healthier state of mind? @AgapiSays shares Greek wisdom from her new book 'Unbinding The Heart':
Cluster 1:
Distance to centroid: 6.987195209765832 - New: Children of Chernobyl seek answers: Are their #health problems caused by lingering radiation?
Distance to centroid: 7.056849936351424 - New: US may lower #cholesterol's level of threat to health, report says
Distance to centroid: 7.066470122495403 - New: When it comes to e-cigs, Big Tobacco concerned for public health, report says
Distance to centroid: 7.068172130139363 - New: Do you make time for your heart health? Only 12 percent reported making time for three essential health habits
Distance to centroid: 7.068172130139363 - New: Do you make time for your heart health? Only 12 percent reported making time for three essential health habits
Distance to centroid: 7.120736006477644 - New: RT @lizlandau: US gets a D+ for failing to support emergency care patients, report says #health
Distance to centroid: 7.123293320934565 - New: RT @PBA_savingsight: Check out this fantastic piece from CNN's "Health Minute" on women's eye health! @cnnhealth
Distance to centroid: 7.12649001501907 - New: $25 spent on sexual health per woman per year would reduce deaths, says UN
Distance to centroid: 7.148374693850961 - New: Have you traveled to #Seattle lately? Health officials investigating #measles case at the airport:
Distance to centroid: 7.171156399423539 - New: RT @kellywallacetv: Q's about women's mental health &amp; meds. Join @CNN NOW w psychiatrist @BellevueDoc.
Distance to centroid: 7.183243201226665 - New: RT @kellywallacetv: Re: Q1: Important to get teachers/administrators to be openly talking about mental health, make it part of natural conv…
Distance to centroid: 7.186014290124489 - New: "If you doubt there's a dental health crisis in America, walk into any emergency room"
Distance to centroid: 7.207879001442747 - New: Student loans may be bad for young adults' mental health
Distance to centroid: 7.244052295800972 - New: Health officials tracking down #measles outbreak origin looking at Philippines, report says
Distance to centroid: 7.253909699928133 - New: 200,000 cardiovascular disease deaths could be prevented annually, the CDC says #health
Distance to centroid: 7.265710815671947 - New: Kids with type 1 #diabetes at risk for mental health problems
Distance to centroid: 7.273048602313859 - New: Childhood mental health disabilities increased 21% over a 10-year period. Why?
Distance to centroid: 7.283051958776796 - New: #Ebola health workers face life or death decision on #pregnant women
Distance to centroid: 7.294290668790933 - New: The spread of polio = an international public #health emergency, says @WHO
Distance to centroid: 7.304003645235953 - New: How #Catholic #health insurance companies provide #birthcontrol:
Cluster 0:
Distance to centroid: 7.211481468928741 - New: VIDEO: Meningitis: 'No one should go through this pain'
Distance to centroid: 7.224770151254068 - New: VIDEO: The man who helped save 50 million lives
Distance to centroid: 7.293185490379683 - New: VIDEO: What does a singer with Down's Syndrome sound like?
Distance to centroid: 7.305412750947693 - New: VIDEO: Labour calls for NHS investment
Distance to centroid: 7.3165029337160625 - New: VIDEO: NHS had 'years of real financial squeeze'
Distance to centroid: 7.356249776201447 - New: VIDEO: Tough laws 'do not stop drug use'
Distance to centroid: 7.359043551450904 - New: VIDEO: 'Bird flu not a threat to food safety'
Distance to centroid: 7.369156265610077 - New: VIDEO: How do our brains deteriorate with age?
Distance to centroid: 7.369203584640569 - New: VIDEO: NHS: Labour and Tory key policies
Distance to centroid: 7.381048960428151 - New: Video game addict dies after 19-hour gaming session
Distance to centroid: 7.38353581810767 - New: VIDEO: Finger on the pulse of bionic research
Distance to centroid: 7.3903308154875935 - New: VIDEO: Child star with Down's syndrome back on TV
Distance to centroid: 7.397571084415504 - New: VIDEO: Football stadium disabled access tackled
Distance to centroid: 7.399393670261927 - New: VIDEO: 'At risk' urged to get flu jabs
Distance to centroid: 7.4045000831596655 - New: VIDEO: How trials helped patients in 2014
Distance to centroid: 7.405552790245273 - New: VIDEO: How to spot the signs of a stroke?
Distance to centroid: 7.409684041461443 - New: VIDEO: NHS 'U-turn' over drug trial money
Distance to centroid: 7.411577010371293 - New: VIDEO: 'End of life care needs more effort'
Distance to centroid: 7.413837352657654 - New: VIDEO: Ebola vaccine 'will come too late'
Distance to centroid: 7.422329190243267 - New: VIDEO: 'Too few' toddlers having flu vaccine
